\relax 
\providecommand\zref@newlabel[2]{}
\catcode `"\active 
\catcode `<\active 
\catcode `>\active 
\@nameuse{es@quoting}
\select@language{spanish}
\@writefile{toc}{\select@language{spanish}}
\@writefile{lof}{\select@language{spanish}}
\@writefile{lot}{\select@language{spanish}}
\providecommand*\caption@xref[2]{\@setref\relax\@undefined{#1}}
\newlabel{}{{\caption@xref {}{ on input line 366}}{1}}
\pgfsyspdfmark {pgfid1}{8215479}{33279440}
\newlabel{cir-bas}{{\caption@xref {cir-bas}{ on input line 411}}{2}}
\pgfsyspdfmark {pgfid2}{8215479}{7484260}
\pgfsyspdfmark {pgfid3}{8215479}{39870884}
\pgfsyspdfmark {pgfid4}{6249399}{11565552}
\pgfsyspdfmark {pgfid5}{13458359}{42456539}
\newlabel{}{{\caption@xref {}{ on input line 510}}{5}}
\newlabel{}{{\caption@xref {}{ on input line 519}}{5}}
\newlabel{}{{\caption@xref {}{ on input line 528}}{5}}
\newlabel{}{{\caption@xref {}{ on input line 538}}{5}}
\pgfsyspdfmark {pgfid6}{6249399}{14125315}
\newlabel{}{{\caption@xref {}{ on input line 561}}{6}}
\newlabel{}{{\caption@xref {}{ on input line 570}}{6}}
\newlabel{}{{\caption@xref {}{ on input line 579}}{7}}
\pgfsyspdfmark {pgfid7}{8174499}{15217738}
\newlabel{}{{\caption@xref {}{ on input line 602}}{8}}
\pgfsyspdfmark {pgfid8}{13458359}{32904754}
\pgfsyspdfmark {pgfid9}{13458359}{22770816}
\pgfsyspdfmark {pgfid10}{13458359}{15997767}
\pgfsyspdfmark {pgfid11}{6249399}{10004091}
\newlabel{cir-bas-eje}{{\caption@xref {cir-bas-eje}{ on input line 706}}{11}}
\pgfsyspdfmark {pgfid12}{6249399}{35890411}
\pgfsyspdfmark {pgfid13}{6249399}{12773503}
\newlabel{}{{\caption@xref {}{ on input line 818}}{12}}
\newlabel{}{{\caption@xref {}{ on input line 828}}{12}}
\pgfsyspdfmark {pgfid14}{8215479}{41884776}
\pgfsyspdfmark {pgfid15}{6249399}{7125578}
\newlabel{}{{\caption@xref {}{ on input line 939}}{14}}
\newlabel{}{{\caption@xref {}{ on input line 948}}{14}}
\newlabel{}{{\caption@xref {}{ on input line 957}}{14}}
\newlabel{}{{\caption@xref {}{ on input line 967}}{14}}
\pgfsyspdfmark {pgfid16}{6249399}{14125315}
\newlabel{}{{\caption@xref {}{ on input line 990}}{15}}
\newlabel{}{{\caption@xref {}{ on input line 1020}}{16}}
\newlabel{}{{\caption@xref {}{ on input line 1029}}{16}}
\newlabel{}{{\caption@xref {}{ on input line 1038}}{17}}
\newlabel{}{{\caption@xref {}{ on input line 1047}}{17}}
\pgfsyspdfmark {pgfid17}{8174499}{33252500}
\newlabel{}{{\caption@xref {}{ on input line 1067}}{18}}
\pgfsyspdfmark {pgfid18}{8215479}{36509123}
\pgfsyspdfmark {pgfid19}{8215479}{28797898}
\newlabel{}{{\caption@xref {}{ on input line 1157}}{20}}
\newlabel{}{{\caption@xref {}{ on input line 1176}}{21}}
\newlabel{serie-1}{{2}{21}}
\newlabel{serie-2}{{4}{22}}
\pgfsyspdfmark {pgfid20}{13458359}{29266381}
\newlabel{}{{\caption@xref {}{ on input line 1222}}{22}}
\pgfsyspdfmark {pgfid21}{6249399}{27257301}
\pgfsyspdfmark {pgfid22}{6249399}{37733185}
\newlabel{}{{\caption@xref {}{ on input line 1273}}{24}}
\newlabel{}{{\caption@xref {}{ on input line 1299}}{25}}
\pgfsyspdfmark {pgfid23}{6249399}{35938095}
\newlabel{}{{\caption@xref {}{ on input line 1321}}{26}}
\newlabel{}{{\caption@xref {}{ on input line 1330}}{27}}
\newlabel{}{{\caption@xref {}{ on input line 1339}}{27}}
\newlabel{}{{\caption@xref {}{ on input line 1348}}{28}}
\pgfsyspdfmark {pgfid24}{8215479}{36659363}
\pgfsyspdfmark {pgfid25}{8215479}{28719467}
\newlabel{}{{\caption@xref {}{ on input line 1432}}{30}}
\newlabel{}{{\caption@xref {}{ on input line 1450}}{31}}
\newlabel{paralelo-1}{{7}{31}}
\newlabel{paralelo-2}{{9}{31}}
\pgfsyspdfmark {pgfid26}{13458359}{34758886}
\newlabel{}{{\caption@xref {}{ on input line 1497}}{32}}
\pgfsyspdfmark {pgfid27}{6249399}{27257301}
\newlabel{}{{\caption@xref {}{ on input line 1630}}{34}}
\pgfsyspdfmark {pgfid28}{6249399}{22294283}
\pgfsyspdfmark {pgfid29}{6249399}{16387425}
\newlabel{}{{\caption@xref {}{ on input line 1692}}{36}}
\newlabel{}{{\caption@xref {}{ on input line 1706}}{36}}
\newlabel{}{{\caption@xref {}{ on input line 1717}}{37}}
\newlabel{}{{\caption@xref {}{ on input line 1727}}{37}}
\pgfsyspdfmark {pgfid30}{6249399}{26502194}
\pgfsyspdfmark {pgfid31}{6249399}{24951911}
\pgfsyspdfmark {pgfid32}{13458359}{18940302}
\newlabel{}{{\caption@xref {}{ on input line 1795}}{40}}
\pgfsyspdfmark {pgfid34}{13458359}{10104451}
\newlabel{}{{\caption@xref {}{ on input line 1809}}{41}}
\pgfsyspdfmark {pgfid33}{6249399}{11317435}
\pgfsyspdfmark {pgfid35}{13458359}{42456539}
\pgfsyspdfmark {pgfid36}{13458359}{26014670}
\pgfsyspdfmark {pgfid37}{13458359}{7347497}
\pgfsyspdfmark {pgfid38}{13458359}{34837165}
\pgfsyspdfmark {pgfid39}{13458359}{27507068}
\pgfsyspdfmark {pgfid40}{8215479}{20417978}
\pgfsyspdfmark {pgfid41}{8215479}{15096982}
\pgfsyspdfmark {pgfid42}{6249399}{6630771}
\pgfsyspdfmark {pgfid43}{6249399}{43582712}
\newlabel{}{{\caption@xref {}{ on input line 2043}}{46}}
\newlabel{}{{\caption@xref {}{ on input line 2052}}{46}}
\newlabel{}{{\caption@xref {}{ on input line 2061}}{46}}
\newlabel{}{{\caption@xref {}{ on input line 2071}}{46}}
\pgfsyspdfmark {pgfid45}{6249399}{11442512}
\newlabel{}{{\caption@xref {}{ on input line 2097}}{47}}
\newlabel{}{{\caption@xref {}{ on input line 2107}}{47}}
\newlabel{}{{\caption@xref {}{ on input line 2116}}{48}}
\pgfsyspdfmark {pgfid46}{8174499}{12951993}
\newlabel{}{{\caption@xref {}{ on input line 2136}}{49}}
\newlabel{}{{\caption@xref {}{ on input line 2185}}{50}}
\newlabel{}{{\caption@xref {}{ on input line 2194}}{51}}
\newlabel{}{{\caption@xref {}{ on input line 2203}}{51}}
\newlabel{}{{\caption@xref {}{ on input line 2212}}{52}}
\newlabel{}{{\caption@xref {}{ on input line 2266}}{53}}
\pgfsyspdfmark {pgfid47}{8174499}{35938095}
\newlabel{}{{\caption@xref {}{ on input line 2286}}{54}}
\newlabel{}{{\caption@xref {}{ on input line 2295}}{55}}
\newlabel{}{{\caption@xref {}{ on input line 2304}}{55}}
\pgfsyspdfmark {pgfid44}{6249399}{5784181}
