<?xml version="1.0" encoding="UTF-8" standalone="no"?>
<!-- Created with Inkscape (http://www.inkscape.org/) -->

<svg
   xmlns:dc="http://purl.org/dc/elements/1.1/"
   xmlns:cc="http://creativecommons.org/ns#"
   xmlns:rdf="http://www.w3.org/1999/02/22-rdf-syntax-ns#"
   xmlns:svg="http://www.w3.org/2000/svg"
   xmlns="http://www.w3.org/2000/svg"
   version="1.1"
   width="70.699997"
   height="120"
   id="svg54280">
  <defs
     id="defs54282" />
  <metadata
     id="metadata54285">
    <rdf:RDF>
      <cc:Work
         rdf:about="">
        <dc:format>image/svg+xml</dc:format>
        <dc:type
           rdf:resource="http://purl.org/dc/dcmitype/StillImage" />
        <dc:title></dc:title>
      </cc:Work>
    </rdf:RDF>
  </metadata>
  <g
     transform="matrix(0.10162619,0,0,0.11309925,-2.10353,7.36716)"
     id="layer1">
    <g
       transform="matrix(30.461314,0,0,16.469159,656.20627,945.00905)"
       id="g14352"
       style="fill:#162d50">
      <rect
         width="49.748741"
         height="18.546343"
         x="5.0339928"
         y="-18.246628"
         transform="matrix(0,-1,1,0,0,0)"
         id="rect39010"
         style="fill:#162d50" />
      <path
         d="m 23.953048,-0.53169756 0,0"
         id="path54054"
         style="fill:#162d50" />
      <polygon
         points="29.953,27.509 29.953,27.509 29.953,27.509 "
         transform="matrix(-0.33363924,-0.00168635,0.00138107,-0.40738841,30.851079,10.710213)"
         id="polygon54058"
         style="fill:#162d50" />
      <path
         d="m 23.020857,-0.53640956 c -0.0034,0.0012 -0.0068,-0.0013 -0.0096,-4.8e-5 l 0,0 c 0.003,-0.0012 0.0063,0.0013 0.0096,4.8e-5 z"
         id="path54064"
         style="fill:#162d50" />
      <path
         d="m 23.33881,-0.53480256 c -0.0026,3.97e-4 -0.0047,-4.28e-4 -0.0068,-3.5e-5 0.0023,-3.92e-4 0.005,4.36e-4 0.0068,3.5e-5 l 0,0 z"
         id="path54066"
         style="fill:#162d50" />
      <path
         d="m 23.593383,-0.53351556 c -0.004,3.9e-4 -0.008,-8.53e-4 -0.01196,-6e-5 l 0,0 0,0 c 0.004,-7.94e-4 0.008,8.6e-4 0.01196,6e-5 z"
         id="path54068"
         style="fill:#162d50" />
      <path
         d="m 22.627155,-0.53839956 c 0.04555,-0.01648 0.09104,0.01648 0.138127,6.98e-4 -0.04782,0.01502 -0.09235,-0.01711 -0.138127,-6.98e-4 z"
         id="path54070"
         style="fill:#162d50" />
      <path
         d="m 23.010847,-0.53646056 0,0 c -0.0091,0.0028 -0.01708,-0.0029 -0.02562,-1.3e-4 0.0086,-0.0028 0.01708,0.0029 0.02562,1.3e-4 l 0,0 z"
         id="path54072"
         style="fill:#162d50" />
      <path
         d="m 22.468686,-0.53920156 0,0 c 0.004,-0.002 0.0074,0.0017 0.01138,5.9e-5 -0.0037,0.0017 -0.0074,-0.0017 -0.01138,-5.9e-5 z"
         id="path54074"
         style="fill:#162d50" />
    </g>
    <circle
       cx="8.8210001"
       cy="8.8219995"
       r="5.145"
       transform="matrix(5.2715779,0,0,5.2715779,99.03167,321.72271)"
       id="circle21435-8-4"
       style="fill:#c8ab37" />
    <circle
       cx="8.9119997"
       cy="9.4320002"
       r="4.527"
       transform="matrix(4.2271894,0,0,4.2271894,107.79883,329.02673)"
       id="circle21437-6-7"
       style="opacity:0.6;fill:#ffdd55" />
    <circle
       cx="8.8210001"
       cy="8.8219995"
       r="5.145"
       transform="matrix(5.2715779,0,0,5.2715779,98.32099,403.02742)"
       id="circle21435-8-4-8"
       style="fill:#c8ab37" />
    <circle
       cx="8.9119997"
       cy="9.4320002"
       r="4.527"
       transform="matrix(4.2271894,0,0,4.2271894,107.08815,410.33144)"
       id="circle21437-6-7-5"
       style="opacity:0.6;fill:#ffdd55" />
    <circle
       cx="8.8210001"
       cy="8.8219995"
       r="5.145"
       transform="matrix(5.2715779,0,0,5.2715779,97.72927,241.04917)"
       id="circle21435-8-4-0"
       style="fill:#c8ab37" />
    <circle
       cx="8.9119997"
       cy="9.4320002"
       r="4.527"
       transform="matrix(4.2271894,0,0,4.2271894,106.49643,248.35319)"
       id="circle21437-6-7-6"
       style="opacity:0.6;fill:#ffdd55" />
    <circle
       cx="8.8210001"
       cy="8.8219995"
       r="5.145"
       transform="matrix(5.2715779,0,0,5.2715779,98.5661,156.43785)"
       id="circle21435-8-4-2"
       style="fill:#c8ab37" />
    <circle
       cx="8.9119997"
       cy="9.4320002"
       r="4.527"
       transform="matrix(4.2271894,0,0,4.2271894,107.33326,163.74187)"
       id="circle21437-6-7-1"
       style="opacity:0.6;fill:#ffdd55" />
    <circle
       cx="8.8210001"
       cy="8.8219995"
       r="5.145"
       transform="matrix(5.2715779,0,0,5.2715779,98.96138,484.61762)"
       id="circle21435-8-4-24"
       style="fill:#c8ab37" />
    <circle
       cx="8.9119997"
       cy="9.4320002"
       r="4.527"
       transform="matrix(4.2271894,0,0,4.2271894,107.72854,491.92164)"
       id="circle21437-6-7-8"
       style="opacity:0.6;fill:#ffdd55" />
    <circle
       cx="8.8210001"
       cy="8.8219995"
       r="5.145"
       transform="matrix(5.2715779,0,0,5.2715779,98.96138,569.47042)"
       id="circle21435-8-4-7"
       style="fill:#c8ab37" />
    <circle
       cx="8.9119997"
       cy="9.4320002"
       r="4.527"
       transform="matrix(4.2271894,0,0,4.2271894,107.72854,576.77444)"
       id="circle21437-6-7-9"
       style="opacity:0.6;fill:#ffdd55" />
    <circle
       cx="8.8210001"
       cy="8.8219995"
       r="5.145"
       transform="matrix(5.2715779,0,0,5.2715779,98.961385,648.26233)"
       id="circle21435-8-4-4"
       style="fill:#c8ab37" />
    <circle
       cx="8.9119997"
       cy="9.4320002"
       r="4.527"
       transform="matrix(4.2271894,0,0,4.2271894,107.72854,655.56635)"
       id="circle21437-6-7-3"
       style="opacity:0.6;fill:#ffdd55" />
    <circle
       cx="8.8210001"
       cy="8.8219995"
       r="5.145"
       transform="matrix(5.2715779,0,0,5.2715779,98.96138,723.01361)"
       id="circle21435-8-4-3"
       style="fill:#c8ab37" />
    <circle
       cx="8.9119997"
       cy="9.4320002"
       r="4.527"
       transform="matrix(4.2271894,0,0,4.2271894,107.72854,730.31763)"
       id="circle21437-6-7-80"
       style="opacity:0.6;fill:#ffdd55" />
    <rect
       width="125.99485"
       height="99.054939"
       x="-793.26007"
       y="467.37714"
       transform="matrix(0.01199662,-0.99992804,0.99992804,0.01199662,0,0)"
       id="middle"
       style="fill:#303030;stroke-width:0" />
    <rect
       width="125.99485"
       height="9.0250053"
       x="-793.26013"
       y="557.40704"
       transform="matrix(0.01199662,-0.99992804,0.99992804,0.01199662,0,0)"
       id="top"
       style="fill:#3d3d3d;stroke-width:0" />
    <rect
       width="125.99485"
       height="9.0250053"
       x="-793.26013"
       y="467.37714"
       transform="matrix(0.01199662,-0.99992804,0.99992804,0.01199662,0,0)"
       id="bottom"
       style="fill:#000000;stroke-width:0" />
    <polygon
       points="300,300 300,30 292.5,54.6 292.5,275.4 "
       transform="matrix(0.00503838,-0.41995263,0.36684373,0.0044012,445.34815,921.51396)"
       id="right"
       style="fill:#141414;stroke-width:0" />
    <polygon
       points="0,300 0,30 7.5,54.6 7.5,275.4 "
       transform="matrix(0.00503838,-0.41995263,0.36684373,0.0044012,448.29561,675.84165)"
       id="left"
       style="fill:#1f1f1f;stroke-width:0" />
    <polygon
       points="50,165 50,115 7.5,114.6 5.6,135.8 5.6,165 "
       transform="matrix(0.00503838,-0.41995263,0.36684373,0.0044012,466.54219,696.2632)"
       id="left-upper-rect"
       style="fill:#1c1c1c;stroke-width:0" />
    <polygon
       points="5.6,194.2 7.5,215.5 50,215.5 50,165 5.6,165 "
       transform="matrix(0.00503838,-0.41995263,0.36684373,0.0044012,429.52766,695.81912)"
       id="left-lower-rect"
       style="fill:#383838;stroke-width:0" />
    <path
       d="m 498.02724,686.64462 21.38698,0.25658 c -0.54956,-6.18078 -5.00379,-11.06437 -10.57982,-11.13127 -5.57603,-0.0669 -10.10895,4.66687 -10.80716,10.87469 z"
       id="slot"
       style="fill:#262626;stroke-width:0" />
    <path
       d="m 490.04725,697.34322 21.97393,0.26363 c 1.77073,-9.97506 9.49225,-17.48466 18.70005,-17.37419 9.20778,0.11047 16.78412,7.7616 18.31449,17.81827 l 0.0367,4.4e-4 0.25193,-20.99762 -59.02517,-0.70816 -0.25192,20.99763 z"
       id="cover"
       style="fill:#303030;stroke-width:0" />
    <circle
       cx="65"
       cy="234.7"
       r="20.6"
       transform="matrix(0.00503838,-0.41995263,0.36684373,0.0044012,396.54039,726.67231)"
       id="circle2875"
       style="fill:#212121;stroke-width:0" />
    <rect
       width="12.599484"
       height="15.922165"
       x="-694.56396"
       y="456.37103"
       transform="matrix(0.01199662,-0.99992804,0.99992804,0.01199662,0,0)"
       id="connector0pin"
       style="fill:#8c8c8c;stroke-width:0" />
    <rect
       width="12.599484"
       height="11.006104"
       x="-694.5639"
       y="456.37109"
       transform="matrix(0.01199662,-0.99992804,0.99992804,0.01199662,0,0)"
       id="connector0terminal"
       style="fill:#8c8c8c;stroke-width:0" />
    <polygon
       points="85,286.6 35,286.6 35,306.6 65,306.6 85,297.4 "
       transform="matrix(0.00503838,-0.41995263,0.36684373,0.0044012,351.17552,721.92792)"
       id="polygon2880"
       style="fill:#8c8c8c;stroke-width:0" />
    <rect
       width="12.599484"
       height="15.922165"
       x="-694.56396"
       y="561.51605"
       transform="matrix(0.01199662,-0.99992804,0.99992804,0.01199662,0,0)"
       id="connector5pin"
       style="fill:#8c8c8c;stroke-width:0" />
    <rect
       width="12.599484"
       height="11.006104"
       x="-694.5639"
       y="566.43213"
       transform="matrix(0.01199662,-0.99992804,0.99992804,0.01199662,0,0)"
       id="connector5terminal"
       style="fill:#8c8c8c;stroke-width:0" />
    <polygon
       points="35,43.4 85,43.4 85,32.6 65,23.4 35,23.4 "
       transform="matrix(0.00503838,-0.41995263,0.36684373,0.0044012,544.28206,724.24471)"
       id="polygon2884"
       style="fill:#8c8c8c;stroke-width:0" />
    <rect
       width="12.599484"
       height="15.922165"
       x="-778.56055"
       y="456.37103"
       transform="matrix(0.01199662,-0.99992804,0.99992804,0.01199662,0,0)"
       id="connector2pin"
       style="fill:#8c8c8c;stroke-width:0" />
    <rect
       width="12.599484"
       height="11.006104"
       x="-778.56049"
       y="456.37109"
       transform="matrix(0.01199662,-0.99992804,0.99992804,0.01199662,0,0)"
       id="connector2terminal"
       style="fill:#8c8c8c;stroke-width:0" />
    <polygon
       points="265,286.6 215,286.6 215,297.4 235,306.6 265,306.6 "
       transform="matrix(0.00503838,-0.41995263,0.36684373,0.0044012,349.3617,873.11088)"
       id="polygon2888"
       style="fill:#8c8c8c;stroke-width:0" />
    <rect
       width="12.599484"
       height="15.922165"
       x="-778.56055"
       y="561.51605"
       transform="matrix(0.01199662,-0.99992804,0.99992804,0.01199662,0,0)"
       id="connector3pin"
       style="fill:#8c8c8c;stroke-width:0" />
    <rect
       width="12.599484"
       height="11.006104"
       x="-778.56049"
       y="566.43213"
       transform="matrix(0.01199662,-0.99992804,0.99992804,0.01199662,0,0)"
       id="connector3terminal"
       style="fill:#8c8c8c;stroke-width:0" />
    <polygon
       points="215,43.4 265,43.4 265,23.4 235,23.4 215,32.6 "
       transform="matrix(0.00503838,-0.41995263,0.36684373,0.0044012,542.46825,875.42767)"
       id="polygon2892"
       style="fill:#8c8c8c;stroke-width:0" />
    <rect
       width="12.599484"
       height="15.922165"
       x="-736.56226"
       y="456.37103"
       transform="matrix(0.01199662,-0.99992804,0.99992804,0.01199662,0,0)"
       id="connector1pin"
       style="fill:#8c8c8c;stroke-width:0" />
    <rect
       width="12.599484"
       height="11.006104"
       x="-736.56219"
       y="456.37109"
       transform="matrix(0.01199662,-0.99992804,0.99992804,0.01199662,0,0)"
       id="connector1terminal"
       style="fill:#8c8c8c;stroke-width:0" />
    <polygon
       points="165,306.6 185,297.4 185,286.6 115,286.6 115,297.4 135,306.6 "
       transform="matrix(0.00503838,-0.41995263,0.36684373,0.0044012,350.26861,797.51939)"
       id="polygon2896"
       style="fill:#8c8c8c;stroke-width:0" />
    <rect
       width="12.599484"
       height="15.922165"
       x="-736.56226"
       y="561.51605"
       transform="matrix(0.01199662,-0.99992804,0.99992804,0.01199662,0,0)"
       id="connector4pin"
       style="fill:#8c8c8c;stroke-width:0" />
    <rect
       width="12.599484"
       height="11.006104"
       x="-736.56219"
       y="566.43213"
       transform="matrix(0.01199662,-0.99992804,0.99992804,0.01199662,0,0)"
       id="connector4terminal"
       style="fill:#8c8c8c;stroke-width:0" />
    <polygon
       points="135,23.4 115,32.6 115,43.4 185,43.4 185,32.6 165,23.4 "
       transform="matrix(0.00503838,-0.41995263,0.36684373,0.0044012,543.37515,799.83618)"
       id="polygon2900"
       style="fill:#8c8c8c;stroke-width:0" />
    <rect
       width="1.1704272"
       height="1.6927844"
       x="466.47827"
       y="397.31372"
       id="connector0pin-0"
       style="fill:#8c8c8c" />
    <rect
       width="1.1704272"
       height="1.6927844"
       x="470.3797"
       y="397.31372"
       id="connector1pin-9"
       style="fill:#8c8c8c" />
    <rect
       width="1.1704272"
       height="1.6927844"
       x="474.28058"
       y="397.31372"
       id="connector2pin-2"
       style="fill:#8c8c8c" />
    <rect
       width="1.1698853"
       height="1.6927844"
       x="478.18307"
       y="397.31372"
       id="connector3pin-3"
       style="fill:#8c8c8c" />
    <rect
       width="1.1698853"
       height="1.6933262"
       x="478.18307"
       y="386.13184"
       id="connector4pin-4"
       style="fill:#8c8c8c" />
    <rect
       width="1.1704272"
       height="1.6933262"
       x="474.28058"
       y="386.13184"
       id="connector5pin-0"
       style="fill:#8c8c8c" />
    <rect
       width="1.1704272"
       height="1.6933262"
       x="470.3797"
       y="386.13184"
       id="connector6pin"
       style="fill:#8c8c8c" />
    <rect
       width="1.1704272"
       height="1.6933262"
       x="466.47827"
       y="386.13184"
       id="connector7pin"
       style="fill:#8c8c8c" />
    <rect
       width="1.1704272"
       height="1.1698853"
       x="466.47827"
       y="397.83661"
       id="connector0terminal-3"
       style="fill:#8c8c8c" />
    <rect
       width="1.1704272"
       height="1.1698853"
       x="470.3797"
       y="397.83661"
       id="connector1terminal-7"
       style="fill:#8c8c8c" />
    <rect
       width="1.1704272"
       height="1.1698853"
       x="474.28058"
       y="397.83661"
       id="connector2terminal-9"
       style="fill:#8c8c8c" />
    <rect
       width="1.1698853"
       height="1.1698853"
       x="478.18307"
       y="397.83661"
       id="connector3terminal-2"
       style="fill:#8c8c8c" />
    <rect
       width="1.1698853"
       height="1.1704272"
       x="478.18307"
       y="386.13184"
       id="connector4terminal-1"
       style="fill:#8c8c8c" />
    <rect
       width="1.1704272"
       height="1.1704272"
       x="474.28058"
       y="386.13184"
       id="connector5terminal-8"
       style="fill:#8c8c8c" />
    <rect
       width="1.1704272"
       height="1.1704272"
       x="470.3797"
       y="386.13184"
       id="connector6terminal"
       style="fill:#8c8c8c" />
    <rect
       width="1.1704272"
       height="1.1704272"
       x="466.47827"
       y="386.13184"
       id="connector7terminal"
       style="fill:#8c8c8c" />
    <rect
       width="1.1704272"
       height="2.6063678"
       x="466.47827"
       y="396.40015"
       id="rect20"
       style="fill:#8c8c8c" />
    <rect
       width="1.1704272"
       height="2.6063678"
       x="470.3797"
       y="396.40015"
       id="rect22"
       style="fill:#8c8c8c" />
    <rect
       width="1.1704272"
       height="2.6063678"
       x="474.28058"
       y="396.40015"
       id="rect24"
       style="fill:#8c8c8c" />
    <rect
       width="1.1698853"
       height="2.6063678"
       x="478.18307"
       y="396.40015"
       id="rect26"
       style="fill:#8c8c8c" />
    <rect
       width="1.1704272"
       height="2.6063678"
       x="466.47827"
       y="386.13184"
       id="rect28"
       style="fill:#8c8c8c" />
    <rect
       width="1.1704272"
       height="2.6063678"
       x="470.3797"
       y="386.13184"
       id="rect30"
       style="fill:#8c8c8c" />
    <rect
       width="1.1704272"
       height="2.6063678"
       x="474.28058"
       y="386.13184"
       id="rect32"
       style="fill:#8c8c8c" />
    <rect
       width="1.1698853"
       height="2.6063678"
       x="478.18307"
       y="386.13184"
       id="rect34"
       style="fill:#8c8c8c" />
    <polygon
       points="0,8.28 0,2.16 28.8,2.16 28.259,8.28 "
       transform="matrix(0.5418644,0,0,0.5418644,465.11278,386.13179)"
       id="polygon36"
       style="fill:#3d3d3d" />
    <polygon
       points="0,21.601 0,15.479 28.259,15.479 28.8,21.601 "
       transform="matrix(0.5418644,0,0,0.5418644,465.11278,386.13179)"
       id="polygon38" />
    <polygon
       points="2.52,3.125 6.12,3.125 6.12,2.347 4.68,1.685 2.52,1.685 "
       transform="matrix(0.5418644,0,0,0.5418644,465.11278,386.13179)"
       id="polygon40"
       style="fill:#8c8c8c" />
    <polygon
       points="9.72,1.685 8.28,2.347 8.28,3.125 13.32,3.125 13.32,2.347 11.88,1.685 "
       transform="matrix(0.5418644,0,0,0.5418644,465.11278,386.13179)"
       id="polygon42"
       style="fill:#8c8c8c" />
    <polygon
       points="22.68,3.125 26.28,3.125 26.28,1.685 24.121,1.685 22.68,2.347 "
       transform="matrix(0.5418644,0,0,0.5418644,465.11278,386.13179)"
       id="polygon44"
       style="fill:#8c8c8c" />
    <polygon
       points="16.919,1.685 15.48,2.347 15.48,3.125 20.52,3.125 20.52,2.347 19.08,1.685 "
       transform="matrix(0.5418644,0,0,0.5418644,465.11278,386.13179)"
       id="polygon46"
       style="fill:#8c8c8c" />
    <polygon
       points="6.12,20.636 2.52,20.636 2.52,22.075 4.68,22.075 6.12,21.413 "
       transform="matrix(0.5418644,0,0,0.5418644,465.11278,386.13179)"
       id="polygon48"
       style="fill:#8c8c8c" />
    <polygon
       points="26.28,20.636 22.68,20.636 22.68,21.413 24.121,22.075 26.28,22.075 "
       transform="matrix(0.5418644,0,0,0.5418644,465.11278,386.13179)"
       id="polygon50"
       style="fill:#8c8c8c" />
    <polygon
       points="11.88,22.075 13.32,21.413 13.32,20.636 8.28,20.636 8.28,21.413 9.72,22.075 "
       transform="matrix(0.5418644,0,0,0.5418644,465.11278,386.13179)"
       id="polygon52"
       style="fill:#8c8c8c" />
    <polygon
       points="19.08,22.075 20.52,21.413 20.52,20.636 15.48,20.636 15.48,21.413 16.919,22.075 "
       transform="matrix(0.5418644,0,0,0.5418644,465.11278,386.13179)"
       id="polygon54"
       style="fill:#8c8c8c" />
    <polygon
       points="27.253,19.821 28.259,19.829 28.8,21.601 28.8,2.16 28.259,3.931 27.253,3.931 "
       transform="matrix(0.5418644,0,0,0.5418644,465.11278,386.13179)"
       id="polygon56"
       style="fill:#141414" />
    <polygon
       points="3.6,8.28 3.6,15.479 0.54,15.479 0.54,19.829 0,21.601 0,2.16 0.54,3.931 0.54,8.28 "
       transform="matrix(0.5418644,0,0,0.5418644,465.11278,386.13179)"
       id="polygon58"
       style="fill:#1f1f1f" />
    <polygon
       points="3.6,11.873 3.6,8.28 0.54,8.251 0.403,9.777 0.403,11.873 "
       transform="matrix(0.5418644,0,0,0.5418644,465.11278,386.13179)"
       id="polygon60"
       style="fill:#1c1c1c" />
    <polygon
       points="0.403,13.981 0.54,15.517 3.6,15.517 3.6,11.873 0.403,11.873 "
       transform="matrix(0.5418644,0,0,0.5418644,465.11278,386.13179)"
       id="polygon62"
       style="fill:#383838" />
    <path
       d="m 465.40538,388.26186 v 2.33706 c 0.92822,0.17557 1.63481,0.98674 1.63481,1.96643 0,0.97969 -0.70225,1.79465 -1.63481,1.97022 v 2.33706 h 15.01995 v -8.61077 h -15.01995 z"
       id="path64"
       style="fill:#303030" />
    <path
       d="m 465.33115,391.42961 v 2.27528 c 0.5733,-0.0667 1.02195,-0.54674 1.02195,-1.14008 0,-0.59334 -0.44432,-1.06856 -1.02195,-1.1352 z"
       id="path66"
       style="fill:#262626" />
    <circle
       cx="4.6799998"
       cy="16.898001"
       r="1.483"
       transform="matrix(0.5418644,0,0,0.5418644,465.11278,386.13179)"
       id="circle68"
       style="fill:#212121" />
    <g
       transform="matrix(0.5418644,0,0,0.5418644,465.11278,386.13179)"
       id="ADI_Logo">
      <rect
         width="4.9400001"
         height="4.98"
         x="4.7800002"
         y="5.8369999"
         id="_x30_.5.0"
         style="fill:#a6a395" />
      <polygon
         points="5.57,10.197 5.57,6.461 9.125,8.345 "
         id="_x30_.5.1"
         style="fill:#3d3d3d" />
    </g>
    <g
       transform="matrix(0,0.54186438,-0.54186438,0,474.2173,390.81887)"
       id="_x30_.6">
      <text
         transform="matrix(0,-1,1,0,1.127,6.0019)"
         id="_x30_.6.0"
         style="font-size:4px;fill:#a69595;font-family:ArialMT">AD584</text>
    </g>
    <rect
       width="13.978786"
       height="21.700026"
       x="481.42136"
       y="377.30652"
       id="rect66931"
       style="fill:#8c8c8c" />
    <rect
       width="13.978786"
       height="21.700026"
       x="528.0174"
       y="377.30652"
       id="rect66933"
       style="fill:#8c8c8c" />
    <rect
       width="13.978786"
       height="21.700026"
       x="574.60681"
       y="377.30652"
       id="rect66935"
       style="fill:#8c8c8c" />
    <rect
       width="13.972313"
       height="21.700026"
       x="621.21564"
       y="377.30652"
       id="rect66937"
       style="fill:#8c8c8c" />
    <rect
       width="13.972313"
       height="21.706972"
       x="621.21564"
       y="233.96416"
       id="rect66939"
       style="fill:#8c8c8c" />
    <rect
       width="13.978786"
       height="21.706972"
       x="574.60681"
       y="233.96416"
       id="rect66941"
       style="fill:#8c8c8c" />
    <rect
       width="13.978786"
       height="21.706972"
       x="528.0174"
       y="233.96416"
       id="rect66943"
       style="fill:#8c8c8c" />
    <rect
       width="13.978786"
       height="21.706972"
       x="481.42136"
       y="233.96416"
       id="rect66945"
       style="fill:#8c8c8c" />
    <rect
       width="13.978786"
       height="14.996913"
       x="481.42136"
       y="384.00934"
       id="rect66947"
       style="fill:#8c8c8c" />
    <rect
       width="13.978786"
       height="14.996913"
       x="528.0174"
       y="384.00934"
       id="rect66949"
       style="fill:#8c8c8c" />
    <rect
       width="13.978786"
       height="14.996913"
       x="574.60681"
       y="384.00934"
       id="rect66951"
       style="fill:#8c8c8c" />
    <rect
       width="13.972313"
       height="14.996913"
       x="621.21564"
       y="384.00934"
       id="rect66953"
       style="fill:#8c8c8c" />
    <rect
       width="13.972313"
       height="15.00386"
       x="621.21564"
       y="233.96416"
       id="rect66955"
       style="fill:#8c8c8c" />
    <rect
       width="13.978786"
       height="15.00386"
       x="574.60681"
       y="233.96416"
       id="rect66957"
       style="fill:#8c8c8c" />
    <rect
       width="13.978786"
       height="15.00386"
       x="528.0174"
       y="233.96416"
       id="rect66959"
       style="fill:#8c8c8c" />
    <rect
       width="13.978786"
       height="15.00386"
       x="481.42136"
       y="233.96416"
       id="rect66961"
       style="fill:#8c8c8c" />
    <rect
       width="13.978786"
       height="33.411373"
       x="481.42136"
       y="365.59488"
       id="rect66963"
       style="fill:#8c8c8c" />
    <rect
       width="13.978786"
       height="33.411373"
       x="528.0174"
       y="365.59488"
       id="rect66965"
       style="fill:#8c8c8c" />
    <rect
       width="13.978786"
       height="33.411373"
       x="574.60681"
       y="365.59488"
       id="rect66967"
       style="fill:#8c8c8c" />
    <rect
       width="13.972313"
       height="33.411373"
       x="621.21564"
       y="365.59488"
       id="rect66969"
       style="fill:#8c8c8c" />
    <rect
       width="13.978786"
       height="33.411373"
       x="481.42136"
       y="233.96416"
       id="rect66971"
       style="fill:#8c8c8c" />
    <rect
       width="13.978786"
       height="33.411373"
       x="528.0174"
       y="233.96416"
       id="rect66973"
       style="fill:#8c8c8c" />
    <rect
       width="13.978786"
       height="33.411373"
       x="574.60681"
       y="233.96416"
       id="rect66975"
       style="fill:#8c8c8c" />
    <rect
       width="13.972313"
       height="33.411373"
       x="621.21564"
       y="233.96416"
       id="rect66977"
       style="fill:#8c8c8c" />
    <polygon
       points="0,2.16 28.8,2.16 28.259,8.28 0,8.28 "
       transform="matrix(6.4716594,0,0,6.9462312,465.11278,233.96379)"
       id="polygon66979"
       style="fill:#3d3d3d" />
    <polygon
       points="0,15.479 28.259,15.479 28.8,21.601 0,21.601 "
       transform="matrix(6.4716594,0,0,6.9462312,465.11278,233.96379)"
       id="polygon66981" />
    <polygon
       points="6.12,3.125 6.12,2.347 4.68,1.685 2.52,1.685 2.52,3.125 "
       transform="matrix(6.4716594,0,0,6.9462312,465.11278,233.96379)"
       id="polygon66983"
       style="fill:#8c8c8c" />
    <polygon
       points="8.28,2.347 8.28,3.125 13.32,3.125 13.32,2.347 11.88,1.685 9.72,1.685 "
       transform="matrix(6.4716594,0,0,6.9462312,465.11278,233.96379)"
       id="polygon66985"
       style="fill:#8c8c8c" />
    <polygon
       points="26.28,3.125 26.28,1.685 24.121,1.685 22.68,2.347 22.68,3.125 "
       transform="matrix(6.4716594,0,0,6.9462312,465.11278,233.96379)"
       id="polygon66987"
       style="fill:#8c8c8c" />
    <polygon
       points="15.48,2.347 15.48,3.125 20.52,3.125 20.52,2.347 19.08,1.685 16.919,1.685 "
       transform="matrix(6.4716594,0,0,6.9462312,465.11278,233.96379)"
       id="polygon66989"
       style="fill:#8c8c8c" />
    <polygon
       points="2.52,20.636 2.52,22.075 4.68,22.075 6.12,21.413 6.12,20.636 "
       transform="matrix(6.4716594,0,0,6.9462312,465.11278,233.96379)"
       id="polygon66991"
       style="fill:#8c8c8c" />
    <polygon
       points="22.68,20.636 22.68,21.413 24.121,22.075 26.28,22.075 26.28,20.636 "
       transform="matrix(6.4716594,0,0,6.9462312,465.11278,233.96379)"
       id="polygon66993"
       style="fill:#8c8c8c" />
    <polygon
       points="13.32,21.413 13.32,20.636 8.28,20.636 8.28,21.413 9.72,22.075 11.88,22.075 "
       transform="matrix(6.4716594,0,0,6.9462312,465.11278,233.96379)"
       id="polygon66995"
       style="fill:#8c8c8c" />
    <polygon
       points="20.52,21.413 20.52,20.636 15.48,20.636 15.48,21.413 16.919,22.075 19.08,22.075 "
       transform="matrix(6.4716594,0,0,6.9462312,465.11278,233.96379)"
       id="polygon66997"
       style="fill:#8c8c8c" />
    <polygon
       points="28.259,19.829 28.8,21.601 28.8,2.16 28.259,3.931 27.253,3.931 27.253,19.821 "
       transform="matrix(6.4716594,0,0,6.9462312,465.11278,233.96379)"
       id="polygon66999"
       style="fill:#141414" />
    <polygon
       points="3.6,15.479 0.54,15.479 0.54,19.829 0,21.601 0,2.16 0.54,3.931 0.54,8.28 3.6,8.28 "
       transform="matrix(6.4716594,0,0,6.9462312,465.11278,233.96379)"
       id="polygon67001"
       style="fill:#1f1f1f" />
    <polygon
       points="3.6,8.28 0.54,8.251 0.403,9.777 0.403,11.873 3.6,11.873 "
       transform="matrix(6.4716594,0,0,6.9462312,465.11278,233.96379)"
       id="polygon67003"
       style="fill:#1c1c1c" />
    <polygon
       points="0.54,15.517 3.6,15.517 3.6,11.873 0.403,11.873 0.403,13.981 "
       transform="matrix(6.4716594,0,0,6.9462312,465.11278,233.96379)"
       id="polygon67005"
       style="fill:#383838" />
    <path
       d="m 468.60747,261.26942 v 29.9591 c 11.08596,2.25058 19.525,12.64908 19.525,25.20787 0,12.55878 -8.38727,23.00592 -19.525,25.2565 v 29.9591 H 647.99541 V 261.26942 H 468.60747 z"
       id="path67007"
       style="fill:#303030" />
    <path
       d="m 467.72086,301.87709 v 29.16723 c 6.84701,-0.85439 12.20555,-7.00876 12.20555,-14.61488 0,-7.60612 -5.30676,-13.69796 -12.20555,-14.55235 z"
       id="path67009"
       style="fill:#262626" />
    <circle
       cx="4.6799998"
       cy="16.898001"
       r="1.483"
       transform="matrix(6.4716594,0,0,6.9462312,465.11278,233.96379)"
       id="circle67011"
       style="fill:#212121" />
    <rect
       width="110.0095"
       height="39.489262"
       x="244.26141"
       y="267.09277"
       id="rect290842"
       style="fill:#d4aa00" />
    <rect
       width="111.40983"
       height="0.7114594"
       x="243.42438"
       y="267.09277"
       id="rect290844"
       style="opacity:0.2;fill:#ffffff" />
    <polygon
       points="0.289,7.373 0.14,6.078 0.14,4.9 14.602,4.9 14.602,6.078 14.455,7.373 "
       transform="matrix(7.6104806,0,0,6.5271506,243.14284,267.09278)"
       id="polygon290846"
       style="fill:#decd87" />
    <rect
       width="11.316784"
       height="31.976511"
       x="244.26141"
       y="266.7948"
       id="rect290848"
       style="fill:#806600;fill-opacity:0.5" />
    <line
       x1="251.73485"
       y1="315.20422"
       x2="251.73485"
       y2="315.20422"
       id="line290850"
       style="fill:#d4aa00" />
    <rect
       width="110.29107"
       height="0.3720476"
       x="243.9799"
       y="306.58875"
       id="rect290852"
       style="opacity:0.5;fill:#d4aa00" />
    <rect
       width="110.29107"
       height="0.31330323"
       x="243.9799"
       y="306.27524"
       id="rect290854"
       style="opacity:0.15;fill:#d4aa00" />
    <rect
       width="110.29107"
       height="13.009832"
       x="243.9799"
       y="298.92578"
       id="rect290856"
       style="opacity:0.27000002;fill:#ffd42a" />
    <rect
       width="1.1187407"
       height="27.05504"
       x="354.27103"
       y="276.36127"
       id="rect290858"
       style="fill:#d4aa00" />
    <rect
       width="1.1187407"
       height="27.05504"
       x="243.14287"
       y="276.36127"
       id="rect290860"
       style="fill:#806600" />
    <polygon
       points="0.147,7.373 0,6.2 0,5.564 0.147,5.564 0.147,6.139 0.295,7.373 "
       transform="matrix(7.6104806,0,0,6.5271506,243.14284,267.09278)"
       id="polygon290862"
       style="fill:#d4aa00" />
    <polygon
       points="14.602,7.373 14.75,6.2 14.75,5.564 14.602,5.564 14.602,6.139 14.455,7.373 "
       transform="matrix(7.6104806,0,0,6.5271506,243.14284,267.09278)"
       id="polygon290864"
       style="fill:#aa8800" />
    <rect
       width="1.1187407"
       height="0.3981562"
       x="354.27103"
       y="276.36127"
       id="rect290866"
       style="opacity:0.5;fill:#ffffff" />
    <rect
       width="1.1187407"
       height="0.3981562"
       x="243.14287"
       y="276.36127"
       id="rect290868"
       style="opacity:0.5;fill:#ffffff" />
    <rect
       width="1.1187407"
       height="0.41121051"
       x="243.14287"
       y="303.41"
       id="rect290870"
       style="fill:#d4aa00" />
    <rect
       width="1.1187407"
       height="0.41121051"
       x="354.27103"
       y="303.41"
       id="rect290872"
       style="fill:#999999" />
    <polygon
       points="14.602,7.373 0.147,7.373 0.134,7.271 14.616,7.271 "
       transform="matrix(7.6104806,0,0,6.5271506,244.54624,267.09278)"
       id="polygon290874"
       style="opacity:0.2;fill:#ffcc00" />
    <g
       transform="matrix(3.3909306,0,0,3.4819293,868.17886,763.04361)"
       id="icon">
      <rect
         width="30"
         height="27"
         x="-166.23431"
         y="-92.922142"
         id="middle-9"
         style="fill:#303030" />
      <rect
         width="30"
         height="2.46"
         x="-166.23431"
         y="-92.922142"
         id="top-1"
         style="fill:#3d3d3d" />
      <rect
         width="30"
         height="2.46"
         x="-166.23431"
         y="-68.382141"
         id="bottom-3"
         style="fill:#000000" />
      <polygon
         points="30,3 29.25,5.46 29.25,27.54 30,30 "
         transform="translate(-166.23432,-95.922142)"
         id="right-0"
         style="fill:#141414" />
      <polygon
         points="0,3 0.75,5.46 0.75,27.54 0,30 "
         transform="translate(-166.23432,-95.922142)"
         id="left-7"
         style="fill:#1f1f1f" />
      <polygon
         points="0.75,11.46 0.56,13.58 0.56,16.5 5,16.5 5,11.5 "
         transform="translate(-166.23432,-95.922142)"
         id="left-upper-rect-8"
         style="fill:#1c1c1c" />
      <polygon
         points="5,21.55 5,16.5 0.56,16.5 0.56,19.42 0.75,21.55 "
         transform="translate(-166.23432,-95.922142)"
         id="left-lower-rect-1"
         style="fill:#383838" />
      <path
         d="m -165.67432,-82.342141 v 5.83 c 1.47,-0.17 2.62,-1.4 2.62,-2.92 0,-1.52 -1.14,-2.74 -2.62,-2.91 z"
         id="slot-0"
         style="fill:#262626" />
      <path
         d="m -165.48432,-90.462142 v 5.990001 c 2.38,0.45 4.19,2.53 4.19,5.04 0,2.51 -1.8,4.6 -4.19,5.05 v 0.01 h 5 v -16.090001 h -5 z"
         id="cover-9"
         style="fill:#303030" />
      <circle
         cx="6.5"
         cy="23.469999"
         r="2.0599999"
         transform="translate(-166.23432,-95.922142)"
         id="circle242721"
         style="fill:#212121" />
      <rect
         width="3"
         height="4.3400002"
         x="-162.73431"
         y="-67.262146"
         id="connector0pin-6"
         style="fill:#8c8c8c" />
      <rect
         width="3"
         height="3"
         x="-162.73431"
         y="-65.922142"
         id="connector0terminal-6"
         style="fill:#8c8c8c" />
      <polygon
         points="3.5,30.66 6.5,30.66 8.5,29.74 8.5,28.66 3.5,28.66 "
         transform="translate(-166.23432,-95.922142)"
         id="polygon242726"
         style="fill:#8c8c8c" />
      <rect
         width="3"
         height="4.3400002"
         x="-162.73431"
         y="-95.922142"
         id="connector5pin-7"
         style="fill:#8c8c8c" />
      <rect
         width="3"
         height="3"
         x="-162.73431"
         y="-95.922142"
         id="connector5terminal-3"
         style="fill:#8c8c8c" />
      <polygon
         points="8.5,3.26 6.5,2.34 3.5,2.34 3.5,4.34 8.5,4.34 "
         transform="translate(-166.23432,-95.922142)"
         id="polygon242730"
         style="fill:#8c8c8c" />
      <rect
         width="3"
         height="4.3400002"
         x="-142.73431"
         y="-67.262146"
         id="connector2pin-7"
         style="fill:#8c8c8c" />
      <rect
         width="3"
         height="3"
         x="-142.73431"
         y="-65.922142"
         id="connector2terminal-3"
         style="fill:#8c8c8c" />
      <polygon
         points="21.5,29.74 23.5,30.66 26.5,30.66 26.5,28.66 21.5,28.66 "
         transform="translate(-166.23432,-95.922142)"
         id="polygon242734"
         style="fill:#8c8c8c" />
      <rect
         width="3"
         height="4.3400002"
         x="-142.73431"
         y="-95.922142"
         id="connector3pin-6"
         style="fill:#8c8c8c" />
      <rect
         width="3"
         height="3"
         x="-142.73431"
         y="-95.922142"
         id="connector3terminal-3"
         style="fill:#8c8c8c" />
      <polygon
         points="26.5,2.34 23.5,2.34 21.5,3.26 21.5,4.34 26.5,4.34 "
         transform="translate(-166.23432,-95.922142)"
         id="polygon242738"
         style="fill:#8c8c8c" />
      <rect
         width="3"
         height="4.3400002"
         x="-152.73431"
         y="-67.262146"
         id="connector1pin-3"
         style="fill:#8c8c8c" />
      <rect
         width="3"
         height="3"
         x="-152.73431"
         y="-65.922142"
         id="connector1terminal-8"
         style="fill:#8c8c8c" />
      <polygon
         points="11.5,28.66 11.5,29.74 13.5,30.66 16.5,30.66 18.5,29.74 18.5,28.66 "
         transform="translate(-166.23432,-95.922142)"
         id="polygon242742"
         style="fill:#8c8c8c" />
      <rect
         width="3"
         height="4.3400002"
         x="-152.73431"
         y="-95.922142"
         id="connector4pin-3"
         style="fill:#8c8c8c" />
      <rect
         width="3"
         height="3"
         x="-152.73431"
         y="-95.922142"
         id="connector4terminal-4"
         style="fill:#8c8c8c" />
      <polygon
         points="18.5,4.34 18.5,3.26 16.5,2.34 13.5,2.34 11.5,3.26 11.5,4.34 "
         transform="translate(-166.23432,-95.922142)"
         id="polygon242746"
         style="fill:#8c8c8c" />
      <g
         transform="matrix(0.92134664,0,0,0.72924102,30.236178,-104.79985)"
         id="icon-1">
        <rect
           width="30.191185"
           height="30.581835"
           x="69.158287"
           y="-233.57718"
           transform="matrix(0.00819936,-0.99996638,0.99995183,0.0098149,0,0)"
           id="middle-8"
           style="fill:#303030" />
        <rect
           width="30.191185"
           height="2.7863452"
           x="69.158287"
           y="-233.57718"
           transform="matrix(0.00819936,-0.99996638,0.99995183,0.0098149,0,0)"
           id="top-0"
           style="fill:#3d3d3d" />
        <rect
           width="30.191185"
           height="2.7863452"
           x="69.158287"
           y="-205.78169"
           transform="matrix(0.00819936,-0.99996638,0.99995183,0.0098149,0,0)"
           id="bottom-1"
           style="fill:#000000" />
        <polygon
           points="29.25,27.54 30,30 30,3 29.25,5.46 "
           transform="matrix(0.00825161,-1.006339,1.132606,0.01111695,-236.39669,-71.481851)"
           id="right-1"
           style="fill:#141414" />
        <polygon
           points="0.75,27.54 0,30 0,3 0.75,5.46 "
           transform="matrix(0.00825161,-1.006339,1.132606,0.01111695,-236.39669,-71.481851)"
           id="left-72"
           style="fill:#1f1f1f" />
        <polygon
           points="0.56,16.5 5,16.5 5,11.5 0.75,11.46 0.56,13.58 "
           transform="matrix(0.00825161,-1.006339,1.132606,0.01111695,-236.39669,-71.481851)"
           id="left-upper-rect-5"
           style="fill:#1c1c1c" />
        <polygon
           points="0.56,16.5 0.56,19.42 0.75,21.55 5,21.55 5,16.5 "
           transform="matrix(0.00825161,-1.006339,1.132606,0.01111695,-236.39669,-71.481851)"
           id="left-lower-rect-8"
           style="fill:#383838" />
        <path
           d="m -221.01128,-71.894433 6.60309,0.06481 c -0.18041,-1.481206 -1.56403,-2.65217 -3.28559,-2.669068 -1.72156,-0.0169 -3.11275,1.116766 -3.3175,2.604258 z"
           id="slot-05"
           style="fill:#262626" />
        <path
           d="m -230.20647,-72.175907 6.78431,0.06659 c 0.52931,-2.390085 2.90006,-4.188435 5.7429,-4.160531 2.84285,0.0279 5.19514,1.862548 5.68509,4.272701 l 0.0113,1.11e-4 0.0413,-5.031695 -18.22363,-0.178872 -0.0413,5.031695 z"
           id="cover-95"
           style="fill:#303030" />
        <circle
           cx="6.5"
           cy="23.469999"
           r="2.0599999"
           transform="matrix(0.00825161,-1.006339,1.132606,0.01111695,-236.39669,-71.481851)"
           id="circle242721-7"
           style="fill:#212121" />
        <text
           x="6.5"
           y="16.5"
           id="label"
           style="font-size:8px;text-anchor:start;fill:#dddddd;stroke:none;font-family:OCRA" />
        <rect
           width="3.0191185"
           height="4.9157472"
           x="72.680595"
           y="-204.51311"
           transform="matrix(0.00819936,-0.99996638,0.99995183,0.0098149,0,0)"
           id="connector0pin-9"
           style="fill:#8c8c8c" />
        <rect
           width="3.0191185"
           height="3.3979816"
           x="72.680595"
           y="-202.99535"
           transform="matrix(0.00819936,-0.99996638,0.99995183,0.0098149,0,0)"
           id="connector0terminal-30"
           style="fill:#8c8c8c" />
        <polygon
           points="8.5,29.74 8.5,28.66 3.5,28.66 3.5,30.66 6.5,30.66 "
           transform="matrix(0.00825161,-1.006339,1.132606,0.01111695,-236.39669,-71.481851)"
           id="polygon242726-1"
           style="fill:#8c8c8c" />
        <rect
           width="3.0191185"
           height="4.9157472"
           x="72.680595"
           y="-236.97516"
           transform="matrix(0.00819936,-0.99996638,0.99995183,0.0098149,0,0)"
           id="connector5pin-4"
           style="fill:#8c8c8c" />
        <rect
           width="3.0191185"
           height="3.3979816"
           x="72.680595"
           y="-236.97516"
           transform="matrix(0.00819936,-0.99996638,0.99995183,0.0098149,0,0)"
           id="connector5terminal-6"
           style="fill:#8c8c8c" />
        <polygon
           points="3.5,2.34 3.5,4.34 8.5,4.34 8.5,3.26 6.5,2.34 "
           transform="matrix(0.00825161,-1.006339,1.132606,0.01111695,-236.39669,-71.481851)"
           id="polygon242730-9"
           style="fill:#8c8c8c" />
        <rect
           width="3.0191185"
           height="4.9157472"
           x="92.808052"
           y="-204.51311"
           transform="matrix(0.00819936,-0.99996638,0.99995183,0.0098149,0,0)"
           id="connector2pin-3"
           style="fill:#8c8c8c" />
        <rect
           width="3.0191185"
           height="3.3979816"
           x="92.808052"
           y="-202.99535"
           transform="matrix(0.00819936,-0.99996638,0.99995183,0.0098149,0,0)"
           id="connector2terminal-1"
           style="fill:#8c8c8c" />
        <polygon
           points="26.5,30.66 26.5,28.66 21.5,28.66 21.5,29.74 23.5,30.66 "
           transform="matrix(0.00825161,-1.006339,1.132606,0.01111695,-236.39669,-71.481851)"
           id="polygon242734-7"
           style="fill:#8c8c8c" />
        <rect
           width="3.0191185"
           height="4.9157472"
           x="92.808052"
           y="-236.97516"
           transform="matrix(0.00819936,-0.99996638,0.99995183,0.0098149,0,0)"
           id="connector3pin-8"
           style="fill:#8c8c8c" />
        <rect
           width="3.0191185"
           height="3.3979816"
           x="92.808052"
           y="-236.97516"
           transform="matrix(0.00819936,-0.99996638,0.99995183,0.0098149,0,0)"
           id="connector3terminal-8"
           style="fill:#8c8c8c" />
        <polygon
           points="21.5,3.26 21.5,4.34 26.5,4.34 26.5,2.34 23.5,2.34 "
           transform="matrix(0.00825161,-1.006339,1.132606,0.01111695,-236.39669,-71.481851)"
           id="polygon242738-0"
           style="fill:#8c8c8c" />
        <rect
           width="3.0191185"
           height="4.9157472"
           x="82.744324"
           y="-204.51311"
           transform="matrix(0.00819936,-0.99996638,0.99995183,0.0098149,0,0)"
           id="connector1pin-4"
           style="fill:#8c8c8c" />
        <rect
           width="3.0191185"
           height="3.3979816"
           x="82.744324"
           y="-202.99535"
           transform="matrix(0.00819936,-0.99996638,0.99995183,0.0098149,0,0)"
           id="connector1terminal-85"
           style="fill:#8c8c8c" />
        <polygon
           points="13.5,30.66 16.5,30.66 18.5,29.74 18.5,28.66 11.5,28.66 11.5,29.74 "
           transform="matrix(0.00825161,-1.006339,1.132606,0.01111695,-236.39669,-71.481851)"
           id="polygon242742-8"
           style="fill:#8c8c8c" />
        <rect
           width="3.0191185"
           height="4.9157472"
           x="82.744324"
           y="-236.97516"
           transform="matrix(0.00819936,-0.99996638,0.99995183,0.0098149,0,0)"
           id="connector4pin-1"
           style="fill:#8c8c8c" />
        <rect
           width="3.0191185"
           height="3.3979816"
           x="82.744324"
           y="-236.97516"
           transform="matrix(0.00819936,-0.99996638,0.99995183,0.0098149,0,0)"
           id="connector4terminal-3"
           style="fill:#8c8c8c" />
        <polygon
           points="16.5,2.34 13.5,2.34 11.5,3.26 11.5,4.34 18.5,4.34 18.5,3.26 "
           transform="matrix(0.00825161,-1.006339,1.132606,0.01111695,-236.39669,-71.481851)"
           id="polygon242746-1"
           style="fill:#8c8c8c" />
      </g>
    </g>
    <rect
       width="70.604462"
       height="22.907841"
       x="468.26608"
       y="624.64532"
       id="rect290842-4"
       style="fill:#d4aa00" />
    <rect
       width="71.503181"
       height="0.41271976"
       x="467.72888"
       y="624.64532"
       id="rect290844-6"
       style="opacity:0.2;fill:#ffffff" />
    <polygon
       points="0.289,7.373 0.14,6.078 0.14,4.9 14.602,4.9 14.602,6.078 14.455,7.373 "
       transform="matrix(4.8844313,0,0,3.7864198,467.54821,624.64539)"
       id="polygon290846-8"
       style="fill:#decd87" />
    <rect
       width="7.2631483"
       height="18.549671"
       x="468.26608"
       y="624.47247"
       id="rect290848-6"
       style="fill:#806600;fill-opacity:0.5" />
    <line
       x1="473.06259"
       y1="652.55493"
       x2="473.06259"
       y2="652.55493"
       id="line290850-3"
       style="fill:#d4aa00" />
    <rect
       width="70.785172"
       height="0.21582592"
       x="468.08542"
       y="647.55713"
       id="rect290852-9"
       style="opacity:0.5;fill:#d4aa00" />
    <rect
       width="70.785172"
       height="0.18174815"
       x="468.08542"
       y="647.37524"
       id="rect290854-8"
       style="opacity:0.15;fill:#d4aa00" />
    <rect
       width="70.785172"
       height="7.5470428"
       x="468.08542"
       y="643.11176"
       id="rect290856-8"
       style="opacity:0.27000002;fill:#ffd42a" />
    <rect
       width="0.71801144"
       height="15.694711"
       x="538.87061"
       y="630.02197"
       id="rect290858-0"
       style="fill:#d4aa00" />
    <rect
       width="0.71801144"
       height="15.694711"
       x="467.54822"
       y="630.02197"
       id="rect290860-3"
       style="fill:#806600" />
    <polygon
       points="0.147,7.373 0,6.2 0,5.564 0.147,5.564 0.147,6.139 0.295,7.373 "
       transform="matrix(4.8844313,0,0,3.7864198,467.54821,624.64539)"
       id="polygon290862-7"
       style="fill:#d4aa00" />
    <polygon
       points="14.602,7.373 14.75,6.2 14.75,5.564 14.602,5.564 14.602,6.139 14.455,7.373 "
       transform="matrix(4.8844313,0,0,3.7864198,467.54821,624.64539)"
       id="polygon290864-1"
       style="fill:#aa8800" />
    <rect
       width="0.70309263"
       height="0.27594715"
       x="621.80872"
       y="765.60632"
       transform="matrix(0.99909203,0.04260424,-0.02932552,0.99956991,0,0)"
       id="rect290866-8"
       style="opacity:0.5;fill:#ffffff" />
    <rect
       width="0.71801144"
       height="0.23097162"
       x="467.54822"
       y="630.02197"
       id="rect290868-8"
       style="opacity:0.5;fill:#ffffff" />
    <rect
       width="0.71801144"
       height="0.23854445"
       x="467.54822"
       y="645.71307"
       id="rect290870-2"
       style="fill:#d4aa00" />
    <rect
       width="0.71801144"
       height="0.23854445"
       x="538.87061"
       y="645.71307"
       id="rect290872-2"
       style="fill:#999999" />
    <polygon
       points="0.134,7.271 14.616,7.271 14.602,7.373 0.147,7.373 "
       transform="matrix(4.8844313,0,0,3.7864198,468.44891,624.64539)"
       id="polygon290874-4"
       style="opacity:0.2;fill:#ffcc00" />
    <rect
       width="83.729881"
       height="30.910469"
       x="696.26178"
       y="-619.8642"
       transform="matrix(0.0066822,0.99997767,-0.9999773,-0.00673736,0,0)"
       id="rect290842-47"
       style="fill:#d4aa00" />
    <rect
       width="84.795685"
       height="0.55689925"
       x="695.62476"
       y="-619.8642"
       transform="matrix(0.0066822,0.99997767,-0.9999773,-0.00673736,0,0)"
       id="rect290844-61"
       style="opacity:0.2;fill:#ffffff" />
    <polygon
       points="0.14,4.9 14.602,4.9 14.602,6.078 14.455,7.373 0.289,7.373 0.14,6.078 "
       transform="matrix(0.03870625,5.7923216,-5.1090518,-0.03442227,624.49711,699.57112)"
       id="polygon290846-6"
       style="fill:#decd87" />
    <rect
       width="8.6133728"
       height="25.029812"
       x="696.26178"
       y="-620.09747"
       transform="matrix(0.0066822,0.99997767,-0.9999773,-0.00673736,0,0)"
       id="rect290848-63"
       style="fill:#806600;fill-opacity:0.5" />
    <line
       x1="586.88208"
       y1="705.85675"
       x2="586.88208"
       y2="705.85675"
       id="line290850-0"
       style="fill:#d4aa00" />
    <rect
       width="83.944183"
       height="0.29122257"
       x="696.04755"
       y="-588.94855"
       transform="matrix(0.0066822,0.99997767,-0.9999773,-0.00673736,0,0)"
       id="rect290852-6"
       style="opacity:0.5;fill:#d4aa00" />
    <rect
       width="83.944183"
       height="0.24524005"
       x="696.04755"
       y="-589.19391"
       transform="matrix(0.0066822,0.99997767,-0.9999773,-0.00673736,0,0)"
       id="rect290854-0"
       style="opacity:0.15;fill:#d4aa00" />
    <rect
       width="83.944183"
       height="10.183527"
       x="696.04755"
       y="-594.94678"
       transform="matrix(0.0066822,0.99997767,-0.9999773,-0.00673736,0,0)"
       id="rect290856-0"
       style="opacity:0.27000002;fill:#ffd42a" />
    <rect
       width="0.85149032"
       height="21.177502"
       x="779.9917"
       y="-612.60931"
       transform="matrix(0.0066822,0.99997767,-0.9999773,-0.00673736,0,0)"
       id="rect290858-8"
       style="fill:#d4aa00" />
    <rect
       width="0.85149032"
       height="21.177502"
       x="695.4104"
       y="-612.60931"
       transform="matrix(0.0066822,0.99997767,-0.9999773,-0.00673736,0,0)"
       id="rect290860-5"
       style="fill:#806600" />
    <polygon
       points="0,5.564 0.147,5.564 0.147,6.139 0.295,7.373 0.147,7.373 0,6.2 "
       transform="matrix(0.03870625,5.7923216,-5.1090518,-0.03442227,624.49711,699.57112)"
       id="polygon290862-1"
       style="fill:#d4aa00" />
    <polygon
       points="14.75,5.564 14.602,5.564 14.602,6.139 14.455,7.373 14.602,7.373 14.75,6.2 "
       transform="matrix(0.03870625,5.7923216,-5.1090518,-0.03442227,624.49711,699.57112)"
       id="polygon290864-2"
       style="fill:#aa8800" />
    <rect
       width="0.85149032"
       height="0.31165928"
       x="779.9917"
       y="-612.60931"
       transform="matrix(0.0066822,0.99997767,-0.9999773,-0.00673736,0,0)"
       id="rect290866-1"
       style="opacity:0.5;fill:#ffffff" />
    <rect
       width="0.85149032"
       height="0.31165928"
       x="695.4104"
       y="-612.60931"
       transform="matrix(0.0066822,0.99997767,-0.9999773,-0.00673736,0,0)"
       id="rect290868-2"
       style="opacity:0.5;fill:#ffffff" />
    <rect
       width="0.85149032"
       height="0.3218776"
       x="695.4104"
       y="-591.43665"
       transform="matrix(0.0066822,0.99997767,-0.9999773,-0.00673736,0,0)"
       id="rect290870-9"
       style="fill:#d4aa00" />
    <rect
       width="0.85149032"
       height="0.3218776"
       x="779.9917"
       y="-591.43665"
       transform="matrix(0.0066822,0.99997767,-0.9999773,-0.00673736,0,0)"
       id="rect290872-6"
       style="fill:#999999" />
    <polygon
       points="0.134,7.271 14.616,7.271 14.602,7.373 0.147,7.373 "
       transform="matrix(0.03870625,5.7923216,-5.1090518,-0.03442227,624.50424,700.63925)"
       id="polygon290874-3"
       style="opacity:0.2;fill:#ffcc00" />
    <circle
       cx="8.8210001"
       cy="8.8219995"
       r="5.145"
       transform="matrix(10.499518,0,0,10.384507,506.15823,33.057529)"
       id="circle21435-8-4-2-9"
       style="fill:#c8ab37" />
    <circle
       cx="8.9119997"
       cy="9.4320002"
       r="4.527"
       transform="matrix(8.4193866,0,0,8.3271608,523.61997,47.445751)"
       id="circle21437-6-7-1-5"
       style="opacity:0.6;fill:#f2f2f2" />
    <rect
       width="0.64031523"
       height="0.92608553"
       x="253.0273"
       y="774.34296"
       id="connector0pin-0-5"
       style="fill:#8c8c8c" />
    <rect
       width="0.64031523"
       height="0.92608553"
       x="255.1617"
       y="774.34296"
       id="connector1pin-9-5"
       style="fill:#8c8c8c" />
    <rect
       width="0.64031523"
       height="0.92608553"
       x="257.29578"
       y="774.34296"
       id="connector2pin-2-2"
       style="fill:#8c8c8c" />
    <rect
       width="0.64001876"
       height="0.92608553"
       x="259.43076"
       y="774.34296"
       id="connector3pin-3-7"
       style="fill:#8c8c8c" />
    <rect
       width="0.64001876"
       height="0.92638195"
       x="259.43076"
       y="768.22559"
       id="connector4pin-4-3"
       style="fill:#8c8c8c" />
    <rect
       width="0.64031523"
       height="0.92638195"
       x="257.29578"
       y="768.22559"
       id="connector5pin-0-0"
       style="fill:#8c8c8c" />
    <rect
       width="0.64031523"
       height="0.92638195"
       x="255.1617"
       y="768.22559"
       id="connector6pin-1"
       style="fill:#8c8c8c" />
    <rect
       width="0.64031523"
       height="0.92638195"
       x="253.0273"
       y="768.22559"
       id="connector7pin-8"
       style="fill:#8c8c8c" />
    <rect
       width="0.64031523"
       height="0.64001876"
       x="253.0273"
       y="774.62903"
       id="connector0terminal-3-7"
       style="fill:#8c8c8c" />
    <rect
       width="0.64031523"
       height="0.64001876"
       x="255.1617"
       y="774.62903"
       id="connector1terminal-7-5"
       style="fill:#8c8c8c" />
    <rect
       width="0.64031523"
       height="0.64001876"
       x="257.29578"
       y="774.62903"
       id="connector2terminal-9-5"
       style="fill:#8c8c8c" />
    <rect
       width="0.64001876"
       height="0.64001876"
       x="259.43076"
       y="774.62903"
       id="connector3terminal-2-5"
       style="fill:#8c8c8c" />
    <rect
       width="0.64001876"
       height="0.64031523"
       x="259.43076"
       y="768.22559"
       id="connector4terminal-1-8"
       style="fill:#8c8c8c" />
    <rect
       width="0.64031523"
       height="0.64031523"
       x="257.29578"
       y="768.22559"
       id="connector5terminal-8-3"
       style="fill:#8c8c8c" />
    <rect
       width="0.64031523"
       height="0.64031523"
       x="255.1617"
       y="768.22559"
       id="connector6terminal-1"
       style="fill:#8c8c8c" />
    <rect
       width="0.64031523"
       height="0.64031523"
       x="253.0273"
       y="768.22559"
       id="connector7terminal-3"
       style="fill:#8c8c8c" />
    <rect
       width="0.64031523"
       height="1.4258871"
       x="253.0273"
       y="773.84314"
       id="rect20-5"
       style="fill:#8c8c8c" />
    <rect
       width="0.64031523"
       height="1.4258871"
       x="255.1617"
       y="773.84314"
       id="rect22-7"
       style="fill:#8c8c8c" />
    <rect
       width="0.64031523"
       height="1.4258871"
       x="257.29578"
       y="773.84314"
       id="rect24-3"
       style="fill:#8c8c8c" />
    <rect
       width="0.64001876"
       height="1.4258871"
       x="259.43076"
       y="773.84314"
       id="rect26-8"
       style="fill:#8c8c8c" />
    <rect
       width="0.64031523"
       height="1.4258871"
       x="253.0273"
       y="768.22559"
       id="rect28-7"
       style="fill:#8c8c8c" />
    <rect
       width="0.64031523"
       height="1.4258871"
       x="255.1617"
       y="768.22559"
       id="rect30-8"
       style="fill:#8c8c8c" />
    <rect
       width="0.64031523"
       height="1.4258871"
       x="257.29578"
       y="768.22559"
       id="rect32-1"
       style="fill:#8c8c8c" />
    <rect
       width="0.64001876"
       height="1.4258871"
       x="259.43076"
       y="768.22559"
       id="rect34-0"
       style="fill:#8c8c8c" />
    <polygon
       points="0,8.28 0,2.16 28.8,2.16 28.259,8.28 "
       transform="matrix(0.29644222,0,0,0.29644222,252.28027,768.2256)"
       id="polygon36-1"
       style="fill:#3d3d3d" />
    <polygon
       points="0,21.601 0,15.479 28.259,15.479 28.8,21.601 "
       transform="matrix(0.29644222,0,0,0.29644222,252.28027,768.2256)"
       id="polygon38-3" />
    <polygon
       points="4.68,1.685 2.52,1.685 2.52,3.125 6.12,3.125 6.12,2.347 "
       transform="matrix(0.29644222,0,0,0.29644222,252.28027,768.2256)"
       id="polygon40-1"
       style="fill:#8c8c8c" />
    <polygon
       points="8.28,3.125 13.32,3.125 13.32,2.347 11.88,1.685 9.72,1.685 8.28,2.347 "
       transform="matrix(0.29644222,0,0,0.29644222,252.28027,768.2256)"
       id="polygon42-8"
       style="fill:#8c8c8c" />
    <polygon
       points="24.121,1.685 22.68,2.347 22.68,3.125 26.28,3.125 26.28,1.685 "
       transform="matrix(0.29644222,0,0,0.29644222,252.28027,768.2256)"
       id="polygon44-8"
       style="fill:#8c8c8c" />
    <polygon
       points="15.48,3.125 20.52,3.125 20.52,2.347 19.08,1.685 16.919,1.685 15.48,2.347 "
       transform="matrix(0.29644222,0,0,0.29644222,252.28027,768.2256)"
       id="polygon46-0"
       style="fill:#8c8c8c" />
    <polygon
       points="4.68,22.075 6.12,21.413 6.12,20.636 2.52,20.636 2.52,22.075 "
       transform="matrix(0.29644222,0,0,0.29644222,252.28027,768.2256)"
       id="polygon48-5"
       style="fill:#8c8c8c" />
    <polygon
       points="24.121,22.075 26.28,22.075 26.28,20.636 22.68,20.636 22.68,21.413 "
       transform="matrix(0.29644222,0,0,0.29644222,252.28027,768.2256)"
       id="polygon50-4"
       style="fill:#8c8c8c" />
    <polygon
       points="13.32,20.636 8.28,20.636 8.28,21.413 9.72,22.075 11.88,22.075 13.32,21.413 "
       transform="matrix(0.29644222,0,0,0.29644222,252.28027,768.2256)"
       id="polygon52-5"
       style="fill:#8c8c8c" />
    <polygon
       points="20.52,20.636 15.48,20.636 15.48,21.413 16.919,22.075 19.08,22.075 20.52,21.413 "
       transform="matrix(0.29644222,0,0,0.29644222,252.28027,768.2256)"
       id="polygon54-7"
       style="fill:#8c8c8c" />
    <polygon
       points="28.8,21.601 28.8,2.16 28.259,3.931 27.253,3.931 27.253,19.821 28.259,19.829 "
       transform="matrix(0.29644222,0,0,0.29644222,252.28027,768.2256)"
       id="polygon56-1"
       style="fill:#141414" />
    <polygon
       points="3.6,8.28 3.6,15.479 0.54,15.479 0.54,19.829 0,21.601 0,2.16 0.54,3.931 0.54,8.28 "
       transform="matrix(0.29644222,0,0,0.29644222,252.28027,768.2256)"
       id="polygon58-1"
       style="fill:#1f1f1f" />
    <polygon
       points="0.403,9.777 0.403,11.873 3.6,11.873 3.6,8.28 0.54,8.251 "
       transform="matrix(0.29644222,0,0,0.29644222,252.28027,768.2256)"
       id="polygon60-0"
       style="fill:#1c1c1c" />
    <polygon
       points="3.6,11.873 0.403,11.873 0.403,13.981 0.54,15.517 3.6,15.517 "
       transform="matrix(0.29644222,0,0,0.29644222,252.28027,768.2256)"
       id="polygon62-4"
       style="fill:#383838" />
    <path
       d="m 252.44034,769.39087 v 1.27858 c 0.50781,0.0961 0.89437,0.5398 0.89437,1.07577 0,0.53598 -0.38418,0.98185 -0.89437,1.07786 v 1.27857 h 8.21709 v -4.71078 h -8.21709 z"
       id="path64-1"
       style="fill:#303030" />
    <path
       d="m 252.39973,771.12391 v 1.24476 c 0.31364,-0.0367 0.55909,-0.29914 0.55909,-0.62372 0,-0.32464 -0.24308,-0.58461 -0.55909,-0.62104 z"
       id="path66-9"
       style="fill:#262626" />
    <circle
       cx="4.6799998"
       cy="16.898001"
       r="1.483"
       transform="matrix(0.29644222,0,0,0.29644222,252.28027,768.2256)"
       id="circle68-0"
       style="fill:#212121" />
    <g
       transform="matrix(0.29644222,0,0,0.29644222,252.28027,768.2256)"
       id="ADI_Logo-8">
      <rect
         width="4.9400001"
         height="4.98"
         x="4.7800002"
         y="5.8369999"
         id="_x30_.5.0-4"
         style="fill:#a6a395" />
      <polygon
         points="9.125,8.345 5.57,10.197 5.57,6.461 "
         id="_x30_.5.1-0"
         style="fill:#3d3d3d" />
    </g>
    <g
       transform="matrix(0,0.29644221,-0.29644221,0,257.26115,770.78975)"
       id="_x30_.6-2">
      <text
         transform="matrix(0,-1,1,0,1.127,6.0019)"
         id="_x30_.6.0-7"
         style="font-size:4px;fill:#a69595;font-family:ArialMT">AD584</text>
    </g>
    <rect
       width="7.6474895"
       height="11.871612"
       x="261.20236"
       y="763.39746"
       id="rect66931-4"
       style="fill:#8c8c8c" />
    <rect
       width="7.6474895"
       height="11.871612"
       x="286.69403"
       y="763.39746"
       id="rect66933-9"
       style="fill:#8c8c8c" />
    <rect
       width="7.6474895"
       height="11.871612"
       x="312.1821"
       y="763.39746"
       id="rect66935-6"
       style="fill:#8c8c8c" />
    <rect
       width="7.6439481"
       height="11.871612"
       x="337.68076"
       y="763.39746"
       id="rect66937-7"
       style="fill:#8c8c8c" />
    <rect
       width="7.6439481"
       height="11.875412"
       x="337.68076"
       y="684.97797"
       id="rect66939-7"
       style="fill:#8c8c8c" />
    <rect
       width="7.6474895"
       height="11.875412"
       x="312.1821"
       y="684.97797"
       id="rect66941-4"
       style="fill:#8c8c8c" />
    <rect
       width="7.6474895"
       height="11.875412"
       x="286.69403"
       y="684.97797"
       id="rect66943-8"
       style="fill:#8c8c8c" />
    <rect
       width="7.6474895"
       height="11.875412"
       x="261.20236"
       y="684.97797"
       id="rect66945-9"
       style="fill:#8c8c8c" />
    <rect
       width="7.6474895"
       height="8.2044849"
       x="261.20236"
       y="767.06445"
       id="rect66947-6"
       style="fill:#8c8c8c" />
    <rect
       width="7.6474895"
       height="8.2044849"
       x="286.69403"
       y="767.06445"
       id="rect66949-1"
       style="fill:#8c8c8c" />
    <rect
       width="7.6474895"
       height="8.2044849"
       x="312.1821"
       y="767.06445"
       id="rect66951-4"
       style="fill:#8c8c8c" />
    <rect
       width="7.6439481"
       height="8.2044849"
       x="337.68076"
       y="767.06445"
       id="rect66953-7"
       style="fill:#8c8c8c" />
    <rect
       width="7.6439481"
       height="8.2082853"
       x="337.68076"
       y="684.97797"
       id="rect66955-9"
       style="fill:#8c8c8c" />
    <rect
       width="7.6474895"
       height="8.2082853"
       x="312.1821"
       y="684.97797"
       id="rect66957-3"
       style="fill:#8c8c8c" />
    <rect
       width="7.6474895"
       height="8.2082853"
       x="286.69403"
       y="684.97797"
       id="rect66959-9"
       style="fill:#8c8c8c" />
    <rect
       width="7.6474895"
       height="8.2082853"
       x="261.20236"
       y="684.97797"
       id="rect66961-6"
       style="fill:#8c8c8c" />
    <rect
       width="7.6474895"
       height="18.278635"
       x="261.20236"
       y="756.99023"
       id="rect66963-9"
       style="fill:#8c8c8c" />
    <rect
       width="7.6474895"
       height="18.278635"
       x="286.69403"
       y="756.99023"
       id="rect66965-7"
       style="fill:#8c8c8c" />
    <rect
       width="7.6474895"
       height="18.278635"
       x="312.1821"
       y="756.99023"
       id="rect66967-6"
       style="fill:#8c8c8c" />
    <rect
       width="7.6439481"
       height="18.278635"
       x="337.68076"
       y="756.99023"
       id="rect66969-2"
       style="fill:#8c8c8c" />
    <rect
       width="7.6474895"
       height="18.278635"
       x="261.20236"
       y="684.97797"
       id="rect66971-0"
       style="fill:#8c8c8c" />
    <rect
       width="7.6474895"
       height="18.278635"
       x="286.69403"
       y="684.97797"
       id="rect66973-6"
       style="fill:#8c8c8c" />
    <rect
       width="7.6474895"
       height="18.278635"
       x="312.1821"
       y="684.97797"
       id="rect66975-6"
       style="fill:#8c8c8c" />
    <rect
       width="7.6439481"
       height="18.278635"
       x="337.68076"
       y="684.97797"
       id="rect66977-1"
       style="fill:#8c8c8c" />
    <polygon
       points="0,2.16 28.8,2.16 28.259,8.28 0,8.28 "
       transform="matrix(3.540504,0,0,3.8001319,252.28027,684.97777)"
       id="polygon66979-7"
       style="fill:#999999" />
    <polygon
       points="0,15.479 28.259,15.479 28.8,21.601 0,21.601 "
       transform="matrix(3.540504,0,0,3.8001319,252.28027,684.97777)"
       id="polygon66981-6"
       style="fill:#b3b3b3" />
    <polygon
       points="2.52,1.685 2.52,3.125 6.12,3.125 6.12,2.347 4.68,1.685 "
       transform="matrix(3.540504,0,0,3.8001319,252.28027,684.97777)"
       id="polygon66983-9"
       style="fill:#8c8c8c" />
    <polygon
       points="13.32,3.125 13.32,2.347 11.88,1.685 9.72,1.685 8.28,2.347 8.28,3.125 "
       transform="matrix(3.540504,0,0,3.8001319,252.28027,684.97777)"
       id="polygon66985-1"
       style="fill:#8c8c8c" />
    <polygon
       points="22.68,2.347 22.68,3.125 26.28,3.125 26.28,1.685 24.121,1.685 "
       transform="matrix(3.540504,0,0,3.8001319,252.28027,684.97777)"
       id="polygon66987-9"
       style="fill:#8c8c8c" />
    <polygon
       points="20.52,3.125 20.52,2.347 19.08,1.685 16.919,1.685 15.48,2.347 15.48,3.125 "
       transform="matrix(3.540504,0,0,3.8001319,252.28027,684.97777)"
       id="polygon66989-3"
       style="fill:#8c8c8c" />
    <polygon
       points="6.12,21.413 6.12,20.636 2.52,20.636 2.52,22.075 4.68,22.075 "
       transform="matrix(3.540504,0,0,3.8001319,252.28027,684.97777)"
       id="polygon66991-8"
       style="fill:#8c8c8c" />
    <polygon
       points="26.28,22.075 26.28,20.636 22.68,20.636 22.68,21.413 24.121,22.075 "
       transform="matrix(3.540504,0,0,3.8001319,252.28027,684.97777)"
       id="polygon66993-3"
       style="fill:#8c8c8c" />
    <polygon
       points="8.28,20.636 8.28,21.413 9.72,22.075 11.88,22.075 13.32,21.413 13.32,20.636 "
       transform="matrix(3.540504,0,0,3.8001319,252.28027,684.97777)"
       id="polygon66995-5"
       style="fill:#8c8c8c" />
    <polygon
       points="15.48,20.636 15.48,21.413 16.919,22.075 19.08,22.075 20.52,21.413 20.52,20.636 "
       transform="matrix(3.540504,0,0,3.8001319,252.28027,684.97777)"
       id="polygon66997-4"
       style="fill:#8c8c8c" />
    <polygon
       points="28.8,2.16 28.259,3.931 27.253,3.931 27.253,19.821 28.259,19.829 28.8,21.601 "
       transform="matrix(3.540504,0,0,3.8001319,252.28027,684.97777)"
       id="polygon66999-2"
       style="fill:#141414" />
    <polygon
       points="3.6,15.479 0.54,15.479 0.54,19.829 0,21.601 0,2.16 0.54,3.931 0.54,8.28 3.6,8.28 "
       transform="matrix(3.540504,0,0,3.8001319,252.28027,684.97777)"
       id="polygon67001-2"
       style="fill:#1f1f1f" />
    <polygon
       points="0.403,11.873 3.6,11.873 3.6,8.28 0.54,8.251 0.403,9.777 "
       transform="matrix(3.540504,0,0,3.8001319,252.28027,684.97777)"
       id="polygon67003-0"
       style="fill:#1c1c1c" />
    <polygon
       points="0.403,11.873 0.403,13.981 0.54,15.517 3.6,15.517 3.6,11.873 "
       transform="matrix(3.540504,0,0,3.8001319,252.28027,684.97777)"
       id="polygon67005-0"
       style="fill:#383838" />
    <path
       d="m 253.08688,698.81083 v 16.38997 c 6.06488,1.23126 10.6817,6.92005 10.6817,13.7907 0,6.87059 -4.58849,12.58603 -10.6817,13.81728 v 16.38997 h 98.13924 v -60.38792 h -98.13924 z"
       id="path67007-3"
       style="fill:#999999" />
    <path
       d="m 253.70709,722.13166 v 15.95676 c 3.74585,-0.46742 6.67739,-3.83434 6.67739,-7.99548 0,-4.16115 -2.90321,-7.49386 -6.67739,-7.96128 z"
       id="path67009-6"
       style="fill:#b3b3b3" />
    <circle
       cx="4.6799998"
       cy="16.898001"
       r="1.483"
       transform="matrix(3.540504,0,0,3.8001319,246.75395,646.69341)"
       id="circle67011-2"
       style="fill:#000000" />
    <circle
       cx="4.6799998"
       cy="16.898001"
       r="1.483"
       transform="matrix(3.540504,0,0,3.8001319,324.27297,688.01418)"
       id="circle67011-2-0"
       style="fill:#000000" />
    <rect
       width="54.81921"
       height="22.907841"
       x="275.5386"
       y="804.13452"
       id="rect290842-4-5"
       style="fill:#aa8800" />
    <rect
       width="55.516998"
       height="0.41271976"
       x="275.12152"
       y="804.13452"
       id="rect290844-6-3"
       style="opacity:0.2;fill:#aa8800" />
    <polygon
       points="14.602,4.9 14.602,6.078 14.455,7.373 0.289,7.373 0.14,6.078 0.14,4.9 "
       transform="matrix(3.7924043,0,0,3.7864198,274.98121,804.13461)"
       id="polygon290846-8-5"
       style="fill:#aa8800" />
    <rect
       width="5.6393046"
       height="18.549671"
       x="275.5386"
       y="803.96167"
       id="rect290848-6-7"
       style="fill:#aa8800;fill-opacity:0.5" />
    <line
       x1="279.26273"
       y1="832.04413"
       x2="279.26273"
       y2="832.04413"
       id="line290850-3-2"
       style="fill:#aa8800" />
    <rect
       width="54.959515"
       height="0.21582592"
       x="275.39835"
       y="827.04633"
       id="rect290852-9-4"
       style="opacity:0.5;fill:#aa8800" />
    <rect
       width="54.959515"
       height="0.18174815"
       x="275.39835"
       y="826.86444"
       id="rect290854-8-4"
       style="opacity:0.15;fill:#aa8800" />
    <rect
       width="54.959515"
       height="7.5470428"
       x="275.39835"
       y="822.60095"
       id="rect290856-8-8"
       style="opacity:0.27000002;fill:#aa8800" />
    <rect
       width="0.55748343"
       height="15.694711"
       x="330.35785"
       y="809.51117"
       id="rect290858-0-6"
       style="fill:#aa8800" />
    <rect
       width="0.55748343"
       height="15.694711"
       x="274.98123"
       y="809.51117"
       id="rect290860-3-6"
       style="fill:#aa8800" />
    <polygon
       points="0.147,5.564 0.147,6.139 0.295,7.373 0.147,7.373 0,6.2 0,5.564 "
       transform="matrix(3.7924043,0,0,3.7864198,274.98121,804.13461)"
       id="polygon290862-7-6"
       style="fill:#aa8800" />
    <polygon
       points="14.602,5.564 14.602,6.139 14.455,7.373 14.602,7.373 14.75,6.2 14.75,5.564 "
       transform="matrix(3.7924043,0,0,3.7864198,274.98121,804.13461)"
       id="polygon290864-1-2"
       style="fill:#aa8800" />
    <rect
       width="0.55748343"
       height="0.23097162"
       x="274.98123"
       y="809.51117"
       id="rect290868-8-7"
       style="opacity:0.5;fill:#aa8800" />
    <rect
       width="0.55748343"
       height="0.23854445"
       x="274.98123"
       y="825.20227"
       id="rect290870-2-3"
       style="fill:#aa8800" />
    <rect
       width="0.55748343"
       height="0.23854445"
       x="330.35785"
       y="825.20227"
       id="rect290872-2-1"
       style="fill:#aa8800" />
    <polygon
       points="14.616,7.271 14.602,7.373 0.147,7.373 0.134,7.271 "
       transform="matrix(3.7924043,0,0,3.7864198,275.68054,804.13461)"
       id="polygon290874-4-8"
       style="opacity:0.2;fill:#aa8800" />
  </g>
</svg>
