<?xml version="1.0" encoding="UTF-8" standalone="no"?>
<!-- Created with Inkscape (http://www.inkscape.org/) -->

<svg
   xmlns:dc="http://purl.org/dc/elements/1.1/"
   xmlns:cc="http://creativecommons.org/ns#"
   xmlns:rdf="http://www.w3.org/1999/02/22-rdf-syntax-ns#"
   xmlns:svg="http://www.w3.org/2000/svg"
   xmlns="http://www.w3.org/2000/svg"
   version="1.2"
   width="70.699997"
   height="120"
   id="svg2">
  <defs
     id="defs4" />
  <metadata
     id="metadata7">
    <rdf:RDF>
      <cc:Work
         rdf:about="">
        <dc:format>image/svg+xml</dc:format>
        <dc:type
           rdf:resource="http://purl.org/dc/dcmitype/StillImage" />
        <dc:title></dc:title>
      </cc:Work>
    </rdf:RDF>
  </metadata>
  <g
     transform="translate(0,-932.36218)"
     id="layer1">
    <rect
       width="42.961906"
       height="92.16877"
       x="13.745191"
       y="937.78363"
       id="rect2991"
       style="fill:#aa0000;fill-rule:evenodd;stroke:#000000;stroke-width:0.10268643px;stroke-linecap:butt;stroke-linejoin:miter;stroke-opacity:1" />
    <rect
       width="28.37133"
       height="16.722816"
       x="21.006678"
       y="937.52344"
       id="rect2995"
       style="fill:#ffffff;fill-opacity:1;fill-rule:evenodd;stroke:#000000;stroke-width:0.11691244px;stroke-linecap:butt;stroke-linejoin:miter;stroke-opacity:0" />
    <path
       d="m 539.7802,213.40147 a 114.02334,66.949486 0 1 1 -228.04667,0 114.02334,66.949486 0 1 1 228.04667,0 z"
       transform="matrix(0.06935209,0,0,0.13023084,5.7406757,930.03367)"
       id="path3783"
       style="fill:#333333;fill-opacity:1;stroke:#000000;stroke-opacity:0" />
    <path
       d="m 196.66411,104.60857 a 18.829542,29.2904 0 1 1 -37.65909,0 18.829542,29.2904 0 1 1 37.65909,0 z"
       transform="matrix(0.11099489,0,0,0.13009267,-2.3236111,930.26271)"
       id="path3785"
       style="fill:#666666;fill-opacity:1;stroke:#000000;stroke-opacity:0" />
    <path
       d="m 196.66411,104.60857 a 18.829542,29.2904 0 1 1 -37.65909,0 18.829542,29.2904 0 1 1 37.65909,0 z"
       transform="matrix(0.11099489,0,0,0.13009267,33.325593,930.26274)"
       id="path3785-3"
       style="fill:#666666;fill-opacity:1;stroke:#000000;stroke-opacity:0" />
    <path
       d="m 225.9545,112.97725 a 28.244312,29.2904 0 1 1 -56.48862,0 28.244312,29.2904 0 1 1 56.48862,0 z"
       transform="matrix(0.04131658,0,0,0.04669599,9.3344556,938.60698)"
       id="path3807"
       style="fill:#000000;fill-opacity:1;stroke:#000000;stroke-opacity:0" />
    <path
       d="m 225.9545,112.97725 a 28.244312,29.2904 0 1 1 -56.48862,0 28.244312,29.2904 0 1 1 56.48862,0 z"
       transform="matrix(0.04131658,0,0,0.04669599,45.028271,938.60702)"
       id="path3807-1"
       style="fill:#000000;fill-opacity:1;stroke:#000000;stroke-opacity:0" />
    <rect
       width="12.659353"
       height="24.279579"
       x="16.045303"
       y="970.15448"
       id="rect3827"
       style="fill:#1132ca;fill-opacity:1;stroke:#000000;stroke-width:0.09925337;stroke-opacity:0" />
    <path
       d="m 200.84845,536.64197 a 15.691285,17.783457 0 1 1 -31.38257,0 15.691285,17.783457 0 1 1 31.38257,0 z"
       transform="matrix(0.12603996,0,0,0.13034684,-4.8833944,921.28138)"
       id="path3829"
       style="fill:#e7c218;fill-opacity:1;stroke:#000000;stroke-opacity:0" />
    <flowRoot
       id="flowRoot3831"
       xml:space="preserve"
       style="font-size:40px;font-style:normal;font-weight:normal;line-height:125%;letter-spacing:0px;word-spacing:0px;fill:#000000;fill-opacity:1;stroke:none;font-family:Sans"><flowRegion
         id="flowRegion3833"><rect
           width="123.43811"
           height="43.9356"
           x="349.39261"
           y="596.26886"
           id="rect3835" /></flowRegion><flowPara
         id="flowPara3837"
         style="font-size:48px;fill:#ffffff">Keyes</flowPara></flowRoot>    <flowRoot
       transform="matrix(0.0916791,0,0,0.1074534,3.0023364,928.11494)"
       id="flowRoot3839"
       xml:space="preserve"
       style="font-size:40px;font-style:normal;font-weight:normal;line-height:125%;letter-spacing:0px;word-spacing:0px;fill:#000000;fill-opacity:1;stroke:none;font-family:Sans"><flowRegion
         id="flowRegion3841"><rect
           width="271.98227"
           height="83.686852"
           x="334.74741"
           y="598.36102"
           id="rect3843" /></flowRegion><flowPara
         id="flowPara3845"
         style="font-size:48px">Keyes</flowPara></flowRoot>    <rect
       width="2.8771257"
       height="6.9691396"
       x="15.853498"
       y="957.56512"
       id="rect3855"
       style="fill:#000000;fill-opacity:1;stroke:#000000;stroke-width:0.09925337;stroke-opacity:0" />
    <rect
       width="2.9132061"
       height="1.2224996"
       x="15.835507"
       y="963.36102"
       id="rect3857-6"
       style="fill:#999999;fill-opacity:1;stroke:#000000;stroke-width:0.06023468;stroke-opacity:0" />
    <rect
       width="2.9132061"
       height="1.2224996"
       x="15.83546"
       y="957.57214"
       id="rect3857-6-8"
       style="fill:#999999;fill-opacity:1;stroke:#000000;stroke-width:0.06023468;stroke-opacity:0" />
    <rect
       width="2.8771257"
       height="6.9691396"
       x="20.600731"
       y="957.55109"
       id="rect3855-1"
       style="fill:#000000;fill-opacity:1;stroke:#000000;stroke-width:0.09925337;stroke-opacity:0" />
    <rect
       width="2.9132061"
       height="1.2224996"
       x="20.582741"
       y="963.34698"
       id="rect3857-6-2"
       style="fill:#999999;fill-opacity:1;stroke:#000000;stroke-width:0.06023468;stroke-opacity:0" />
    <rect
       width="2.9132061"
       height="1.2224996"
       x="20.582689"
       y="957.55804"
       id="rect3857-6-8-6"
       style="fill:#999999;fill-opacity:1;stroke:#000000;stroke-width:0.06023468;stroke-opacity:0" />
    <rect
       width="2.8771257"
       height="6.9691396"
       x="45.967388"
       y="957.71973"
       id="rect3855-0"
       style="fill:#000000;fill-opacity:1;stroke:#000000;stroke-width:0.09925337;stroke-opacity:0" />
    <rect
       width="2.9132061"
       height="1.2224996"
       x="45.949398"
       y="963.5155"
       id="rect3857-6-4"
       style="fill:#999999;fill-opacity:1;stroke:#000000;stroke-width:0.06023468;stroke-opacity:0" />
    <rect
       width="2.9132061"
       height="1.2224996"
       x="45.949345"
       y="957.72681"
       id="rect3857-6-8-9"
       style="fill:#999999;fill-opacity:1;stroke:#000000;stroke-width:0.06023468;stroke-opacity:0" />
    <rect
       width="2.8771257"
       height="6.9691396"
       x="51.673683"
       y="957.71973"
       id="rect3855-4"
       style="fill:#000000;fill-opacity:1;stroke:#000000;stroke-width:0.09925337;stroke-opacity:0" />
    <rect
       width="2.9132061"
       height="1.2224996"
       x="51.655697"
       y="963.5155"
       id="rect3857-6-6"
       style="fill:#999999;fill-opacity:1;stroke:#000000;stroke-width:0.06023468;stroke-opacity:0" />
    <rect
       width="2.9132061"
       height="1.2224996"
       x="51.655651"
       y="957.72681"
       id="rect3857-6-8-0"
       style="fill:#999999;fill-opacity:1;stroke:#000000;stroke-width:0.06023468;stroke-opacity:0" />
    <rect
       width="2.8771257"
       height="6.9691396"
       x="15.661665"
       y="1010.8312"
       id="rect3855-3"
       style="fill:#000000;fill-opacity:1;stroke:#000000;stroke-width:0.09925337;stroke-opacity:0" />
    <rect
       width="2.9132061"
       height="1.2224996"
       x="15.643671"
       y="1016.6272"
       id="rect3857-6-62"
       style="fill:#999999;fill-opacity:1;stroke:#000000;stroke-width:0.06023468;stroke-opacity:0" />
    <rect
       width="2.9132061"
       height="1.2224996"
       x="15.643627"
       y="1010.8382"
       id="rect3857-6-8-4"
       style="fill:#999999;fill-opacity:1;stroke:#000000;stroke-width:0.06023468;stroke-opacity:0" />
    <rect
       width="25.639605"
       height="7.669838"
       x="23.158602"
       y="1019.3625"
       id="rect3979"
       style="fill:#000000;fill-opacity:1;stroke:#000000;stroke-width:0.09737647;stroke-opacity:0" />
    <path
       d="m 432.03338,695.64697 a 66.949486,64.857315 0 1 1 -133.89897,0 66.949486,64.857315 0 1 1 133.89897,0 z"
       transform="matrix(0.0916791,0,0,0.1074534,1.8765526,933.88113)"
       id="path3981"
       style="fill:#999999;fill-opacity:1;stroke:#000000;stroke-opacity:0" />
    <rect
       width="2.2962682"
       height="22.249916"
       x="24.724604"
       y="1022.3062"
       id="rect3991"
       style="fill:#808080;fill-opacity:1;stroke:#000000;stroke-width:0.10513473;stroke-opacity:0" />
    <rect
       width="2.2962682"
       height="22.249916"
       x="31.32509"
       y="1022.3062"
       id="rect3991-5"
       style="fill:#808080;fill-opacity:1;stroke:#000000;stroke-width:0.10513473;stroke-opacity:0" />
    <rect
       width="2.2962682"
       height="22.249916"
       x="37.846581"
       y="1022.3062"
       id="rect3991-8"
       style="fill:#808080;fill-opacity:1;stroke:#000000;stroke-width:0.10513473;stroke-opacity:0" />
    <rect
       width="2.2962682"
       height="22.249916"
       x="44.097256"
       y="1022.3062"
       id="rect3991-81"
       style="fill:#808080;fill-opacity:1;stroke:#000000;stroke-width:0.10513473;stroke-opacity:0" />
    <path
       d="M 5.2304233,847.32942 -182.74444,826.14214 -70.40829,673.94477 z"
       transform="matrix(0.00720489,0.01029062,-0.00991013,0.00748151,34.213185,1040.2227)"
       id="path4029"
       style="fill:#808080;fill-opacity:1;stroke:#000000;stroke-opacity:0" />
    <path
       d="M 5.2304233,847.32942 -182.74444,826.14214 -70.40829,673.94477 z"
       transform="matrix(0.00720489,0.01029062,-0.00991013,0.00748151,40.813898,1040.232)"
       id="path4029-2"
       style="fill:#808080;fill-opacity:1;stroke:#000000;stroke-opacity:0" />
    <path
       d="M 5.2304233,847.32942 -182.74444,826.14214 -70.40829,673.94477 z"
       transform="matrix(0.00720489,0.01029062,-0.00991013,0.00748151,47.335389,1040.232)"
       id="path4029-1"
       style="fill:#808080;fill-opacity:1;stroke:#000000;stroke-opacity:0" />
    <path
       d="M 5.2304233,847.32942 -182.74444,826.14214 -70.40829,673.94477 z"
       transform="matrix(0.00720489,0.01029062,-0.00991013,0.00748151,53.593127,1040.232)"
       id="path4029-4"
       style="fill:#808080;fill-opacity:1;stroke:#000000;stroke-opacity:0" />
    <path
       d="m 432.03338,695.64697 a 66.949486,64.857315 0 1 1 -133.89897,0 66.949486,64.857315 0 1 1 133.89897,0 z"
       transform="matrix(0.06181989,0,0,0.07245663,12.681764,958.26573)"
       id="path3981-9"
       style="fill:#ffffff;fill-opacity:1;stroke:#000000;stroke-opacity:0" />
    <rect
       width="2.8771257"
       height="6.9691396"
       x="51.050301"
       y="1010.8312"
       id="rect3855-3-8"
       style="fill:#000000;fill-opacity:1;stroke:#000000;stroke-width:0.09925337;stroke-opacity:0" />
    <rect
       width="2.9132061"
       height="1.2224996"
       x="51.032314"
       y="1016.6273"
       id="rect3857-6-62-2"
       style="fill:#999999;fill-opacity:1;stroke:#000000;stroke-width:0.06023468;stroke-opacity:0" />
    <rect
       width="2.9132061"
       height="1.2224996"
       x="51.032272"
       y="1010.8382"
       id="rect3857-6-8-4-4"
       style="fill:#999999;fill-opacity:1;stroke:#000000;stroke-width:0.06023468;stroke-opacity:0" />
    <rect
       width="0.1121129"
       height="0.19004773"
       x="33.392906"
       y="989.99854"
       id="connector0pin-0-7"
       style="fill:#8c8c8c" />
    <rect
       width="0.1121129"
       height="0.19004773"
       x="33.766613"
       y="989.99854"
       id="connector1pin-9-8"
       style="fill:#8c8c8c" />
    <rect
       width="0.1121129"
       height="0.19004773"
       x="34.140282"
       y="989.99854"
       id="connector2pin-2-3"
       style="fill:#8c8c8c" />
    <rect
       width="0.11206099"
       height="0.19004773"
       x="34.514091"
       y="989.99854"
       id="connector3pin-3-6"
       style="fill:#8c8c8c" />
    <rect
       width="0.11206099"
       height="0.19010854"
       x="34.514091"
       y="988.7431"
       id="connector4pin-4-4"
       style="fill:#8c8c8c" />
    <rect
       width="0.1121129"
       height="0.19010854"
       x="34.140282"
       y="988.7431"
       id="connector5pin-0-4"
       style="fill:#8c8c8c" />
    <rect
       width="0.1121129"
       height="0.19010854"
       x="33.766613"
       y="988.7431"
       id="connector6pin-1"
       style="fill:#8c8c8c" />
    <rect
       width="0.1121129"
       height="0.19010854"
       x="33.392906"
       y="988.7431"
       id="connector7pin-9"
       style="fill:#8c8c8c" />
    <rect
       width="0.1121129"
       height="0.1313422"
       x="33.392906"
       y="990.05725"
       id="connector0terminal-3-5"
       style="fill:#8c8c8c" />
    <rect
       width="0.1121129"
       height="0.1313422"
       x="33.766613"
       y="990.05725"
       id="connector1terminal-7-5"
       style="fill:#8c8c8c" />
    <rect
       width="0.1121129"
       height="0.1313422"
       x="34.140282"
       y="990.05725"
       id="connector2terminal-9-7"
       style="fill:#8c8c8c" />
    <rect
       width="0.11206099"
       height="0.1313422"
       x="34.514091"
       y="990.05725"
       id="connector3terminal-2-4"
       style="fill:#8c8c8c" />
    <rect
       width="0.11206099"
       height="0.13140304"
       x="34.514091"
       y="988.7431"
       id="connector4terminal-1-7"
       style="fill:#8c8c8c" />
    <rect
       width="0.1121129"
       height="0.13140304"
       x="34.140282"
       y="988.7431"
       id="connector5terminal-8-3"
       style="fill:#8c8c8c" />
    <rect
       width="0.1121129"
       height="0.13140304"
       x="33.766613"
       y="988.7431"
       id="connector6terminal-4"
       style="fill:#8c8c8c" />
    <rect
       width="0.1121129"
       height="0.13140304"
       x="33.392906"
       y="988.7431"
       id="connector7terminal-0"
       style="fill:#8c8c8c" />
    <rect
       width="0.1121129"
       height="0.29261515"
       x="33.392906"
       y="989.89587"
       id="rect20-8"
       style="fill:#8c8c8c" />
    <rect
       width="0.1121129"
       height="0.29261515"
       x="33.766613"
       y="989.89587"
       id="rect22-8"
       style="fill:#8c8c8c" />
    <rect
       width="0.1121129"
       height="0.29261515"
       x="34.140282"
       y="989.89587"
       id="rect24-1"
       style="fill:#8c8c8c" />
    <rect
       width="0.11206099"
       height="0.29261515"
       x="34.514091"
       y="989.89587"
       id="rect26-5"
       style="fill:#8c8c8c" />
    <rect
       width="0.1121129"
       height="0.29261515"
       x="33.392906"
       y="988.7431"
       id="rect28-2"
       style="fill:#8c8c8c" />
    <rect
       width="0.1121129"
       height="0.29261515"
       x="33.766613"
       y="988.7431"
       id="rect30-3"
       style="fill:#8c8c8c" />
    <rect
       width="0.1121129"
       height="0.29261515"
       x="34.140282"
       y="988.7431"
       id="rect32-2"
       style="fill:#8c8c8c" />
    <rect
       width="0.11206099"
       height="0.29261515"
       x="34.514091"
       y="988.7431"
       id="rect34-4"
       style="fill:#8c8c8c" />
    <polygon
       points="0,8.28 0,2.16 28.8,2.16 28.259,8.28 "
       transform="matrix(0.0519041,0,0,0.06083474,33.262117,988.74314)"
       id="polygon36-6"
       style="fill:#3d3d3d" />
    <polygon
       points="0,21.601 0,15.479 28.259,15.479 28.8,21.601 "
       transform="matrix(0.0519041,0,0,0.06083474,33.262117,988.74314)"
       id="polygon38-6" />
    <polygon
       points="2.52,3.125 6.12,3.125 6.12,2.347 4.68,1.685 2.52,1.685 "
       transform="matrix(0.0519041,0,0,0.06083474,33.262117,988.74314)"
       id="polygon40-6"
       style="fill:#8c8c8c" />
    <polygon
       points="9.72,1.685 8.28,2.347 8.28,3.125 13.32,3.125 13.32,2.347 11.88,1.685 "
       transform="matrix(0.0519041,0,0,0.06083474,33.262117,988.74314)"
       id="polygon42-2"
       style="fill:#8c8c8c" />
    <polygon
       points="22.68,3.125 26.28,3.125 26.28,1.685 24.121,1.685 22.68,2.347 "
       transform="matrix(0.0519041,0,0,0.06083474,33.262117,988.74314)"
       id="polygon44-9"
       style="fill:#8c8c8c" />
    <polygon
       points="16.919,1.685 15.48,2.347 15.48,3.125 20.52,3.125 20.52,2.347 19.08,1.685 "
       transform="matrix(0.0519041,0,0,0.06083474,33.262117,988.74314)"
       id="polygon46-0"
       style="fill:#8c8c8c" />
    <polygon
       points="6.12,20.636 2.52,20.636 2.52,22.075 4.68,22.075 6.12,21.413 "
       transform="matrix(0.0519041,0,0,0.06083474,33.262117,988.74314)"
       id="polygon48-4"
       style="fill:#8c8c8c" />
    <polygon
       points="26.28,20.636 22.68,20.636 22.68,21.413 24.121,22.075 26.28,22.075 "
       transform="matrix(0.0519041,0,0,0.06083474,33.262117,988.74314)"
       id="polygon50-9"
       style="fill:#8c8c8c" />
    <polygon
       points="11.88,22.075 13.32,21.413 13.32,20.636 8.28,20.636 8.28,21.413 9.72,22.075 "
       transform="matrix(0.0519041,0,0,0.06083474,33.262117,988.74314)"
       id="polygon52-3"
       style="fill:#8c8c8c" />
    <polygon
       points="19.08,22.075 20.52,21.413 20.52,20.636 15.48,20.636 15.48,21.413 16.919,22.075 "
       transform="matrix(0.0519041,0,0,0.06083474,33.262117,988.74314)"
       id="polygon54-1"
       style="fill:#8c8c8c" />
    <polygon
       points="27.253,19.821 28.259,19.829 28.8,21.601 28.8,2.16 28.259,3.931 27.253,3.931 "
       transform="matrix(0.0519041,0,0,0.06083474,33.262117,988.74314)"
       id="polygon56-1"
       style="fill:#141414" />
    <polygon
       points="3.6,8.28 3.6,15.479 0.54,15.479 0.54,19.829 0,21.601 0,2.16 0.54,3.931 0.54,8.28 "
       transform="matrix(0.0519041,0,0,0.06083474,33.262117,988.74314)"
       id="polygon58-9"
       style="fill:#1f1f1f" />
    <polygon
       points="3.6,11.873 3.6,8.28 0.54,8.251 0.403,9.777 0.403,11.873 "
       transform="matrix(0.0519041,0,0,0.06083474,33.262117,988.74314)"
       id="polygon60-9"
       style="fill:#1c1c1c" />
    <polygon
       points="0.403,13.981 0.54,15.517 3.6,15.517 3.6,11.873 0.403,11.873 "
       transform="matrix(0.0519041,0,0,0.06083474,33.262117,988.74314)"
       id="polygon62-5"
       style="fill:#383838" />
    <path
       d="m 33.29014,988.9822 v 0.26243 c 0.08892,0.0194 0.156597,0.11085 0.156597,0.22089 0,0.10993 -0.06725,0.20139 -0.156597,0.22119 v 0.26233 h 1.438732 V 988.9822 H 33.29014 z"
       id="path64-5"
       style="fill:#303030" />
    <path
       d="m 33.283031,989.33783 v 0.25549 c 0.05491,-0.0102 0.0979,-0.0612 0.0979,-0.1279 0,-0.0663 -0.04256,-0.12004 -0.0979,-0.12759 z"
       id="path66-5"
       style="fill:#262626" />
    <circle
       cx="4.6799998"
       cy="16.898001"
       r="1.483"
       transform="matrix(0.0519041,0,0,0.06083474,33.262117,988.74314)"
       id="circle68-6"
       style="fill:#212121" />
    <g
       transform="matrix(0.0519041,0,0,0.06083474,33.262117,988.74314)"
       id="ADI_Logo-0">
      <rect
         width="4.9400001"
         height="4.98"
         x="4.7800002"
         y="5.8369999"
         id="_x30_.5.0-5"
         style="fill:#a6a395" />
      <polygon
         points="5.57,10.197 5.57,6.461 9.125,8.345 "
         id="_x30_.5.1-9"
         style="fill:#3d3d3d" />
    </g>
    <g
       transform="matrix(0,0.06083474,-0.0519041,0,34.134219,989.26933)"
       id="_x30_.6-4">
      <text
         transform="matrix(0,-1,1,0,1.127,6.0019)"
         id="_x30_.6.0-6"
         style="font-size:4px;fill:#a69595;font-family:ArialMT">AD584</text>
    </g>
    <rect
       width="1.3390001"
       height="2.4362464"
       x="34.824276"
       y="987.75226"
       id="rect66931-3"
       style="fill:#8c8c8c" />
    <rect
       width="1.3390001"
       height="2.4362464"
       x="39.287617"
       y="987.75226"
       id="rect66933-4"
       style="fill:#8c8c8c" />
    <rect
       width="1.3390001"
       height="2.4362464"
       x="43.750332"
       y="987.75226"
       id="rect66935-9"
       style="fill:#8c8c8c" />
    <rect
       width="1.3383801"
       height="2.4362464"
       x="48.214901"
       y="987.75226"
       id="rect66937-0"
       style="fill:#8c8c8c" />
    <rect
       width="1.3383801"
       height="2.4370263"
       x="48.214901"
       y="971.65936"
       id="rect66939-5"
       style="fill:#8c8c8c" />
    <rect
       width="1.3390001"
       height="2.4370263"
       x="43.750332"
       y="971.65936"
       id="rect66941-3"
       style="fill:#8c8c8c" />
    <rect
       width="1.3390001"
       height="2.4370263"
       x="39.287617"
       y="971.65936"
       id="rect66943-9"
       style="fill:#8c8c8c" />
    <rect
       width="1.3390001"
       height="2.4370263"
       x="34.824276"
       y="971.65936"
       id="rect66945-1"
       style="fill:#8c8c8c" />
    <rect
       width="1.3390001"
       height="1.6836928"
       x="34.824276"
       y="988.50482"
       id="rect66947-2"
       style="fill:#8c8c8c" />
    <rect
       width="1.3390001"
       height="1.6836928"
       x="39.287617"
       y="988.50482"
       id="rect66949-8"
       style="fill:#8c8c8c" />
    <rect
       width="1.3390001"
       height="1.6836928"
       x="43.750332"
       y="988.50482"
       id="rect66951-8"
       style="fill:#8c8c8c" />
    <rect
       width="1.3383801"
       height="1.6836928"
       x="48.214901"
       y="988.50482"
       id="rect66953-1"
       style="fill:#8c8c8c" />
    <rect
       width="1.3383801"
       height="1.684473"
       x="48.214901"
       y="971.65936"
       id="rect66955-8"
       style="fill:#8c8c8c" />
    <rect
       width="1.3390001"
       height="1.684473"
       x="43.750332"
       y="971.65936"
       id="rect66957-6"
       style="fill:#8c8c8c" />
    <rect
       width="1.3390001"
       height="1.684473"
       x="39.287617"
       y="971.65936"
       id="rect66959-0"
       style="fill:#8c8c8c" />
    <rect
       width="1.3390001"
       height="1.684473"
       x="34.824276"
       y="971.65936"
       id="rect66961-2"
       style="fill:#8c8c8c" />
    <rect
       width="1.3390001"
       height="3.7510715"
       x="34.824276"
       y="986.43744"
       id="rect66963-4"
       style="fill:#8c8c8c" />
    <rect
       width="1.3390001"
       height="3.7510715"
       x="39.287617"
       y="986.43744"
       id="rect66965-9"
       style="fill:#8c8c8c" />
    <rect
       width="1.3390001"
       height="3.7510715"
       x="43.750332"
       y="986.43744"
       id="rect66967-0"
       style="fill:#8c8c8c" />
    <rect
       width="1.3383801"
       height="3.7510715"
       x="48.214901"
       y="986.43744"
       id="rect66969-2"
       style="fill:#8c8c8c" />
    <rect
       width="1.3390001"
       height="3.7510715"
       x="34.824276"
       y="971.65936"
       id="rect66971-2"
       style="fill:#8c8c8c" />
    <rect
       width="1.3390001"
       height="3.7510715"
       x="39.287617"
       y="971.65936"
       id="rect66973-1"
       style="fill:#8c8c8c" />
    <rect
       width="1.3390001"
       height="3.7510715"
       x="43.750332"
       y="971.65936"
       id="rect66975-5"
       style="fill:#8c8c8c" />
    <rect
       width="1.3383801"
       height="3.7510715"
       x="48.214901"
       y="971.65936"
       id="rect66977-4"
       style="fill:#8c8c8c" />
    <polygon
       points="0,2.16 28.8,2.16 28.259,8.28 0,8.28 "
       transform="matrix(0.61990738,0,0,0.77984847,33.262117,971.65936)"
       id="polygon66979-4"
       style="fill:#3d3d3d" />
    <polygon
       points="0,15.479 28.259,15.479 28.8,21.601 0,21.601 "
       transform="matrix(0.61990738,0,0,0.77984847,33.262117,971.65936)"
       id="polygon66981-4" />
    <polygon
       points="6.12,3.125 6.12,2.347 4.68,1.685 2.52,1.685 2.52,3.125 "
       transform="matrix(0.61990738,0,0,0.77984847,33.262117,971.65936)"
       id="polygon66983-2"
       style="fill:#8c8c8c" />
    <polygon
       points="8.28,2.347 8.28,3.125 13.32,3.125 13.32,2.347 11.88,1.685 9.72,1.685 "
       transform="matrix(0.61990738,0,0,0.77984847,33.262117,971.65936)"
       id="polygon66985-5"
       style="fill:#8c8c8c" />
    <polygon
       points="26.28,3.125 26.28,1.685 24.121,1.685 22.68,2.347 22.68,3.125 "
       transform="matrix(0.61990738,0,0,0.77984847,33.262117,971.65936)"
       id="polygon66987-0"
       style="fill:#8c8c8c" />
    <polygon
       points="15.48,2.347 15.48,3.125 20.52,3.125 20.52,2.347 19.08,1.685 16.919,1.685 "
       transform="matrix(0.61990738,0,0,0.77984847,33.262117,971.65936)"
       id="polygon66989-4"
       style="fill:#8c8c8c" />
    <polygon
       points="2.52,20.636 2.52,22.075 4.68,22.075 6.12,21.413 6.12,20.636 "
       transform="matrix(0.61990738,0,0,0.77984847,33.262117,971.65936)"
       id="polygon66991-2"
       style="fill:#8c8c8c" />
    <polygon
       points="22.68,20.636 22.68,21.413 24.121,22.075 26.28,22.075 26.28,20.636 "
       transform="matrix(0.61990738,0,0,0.77984847,33.262117,971.65936)"
       id="polygon66993-1"
       style="fill:#8c8c8c" />
    <polygon
       points="13.32,21.413 13.32,20.636 8.28,20.636 8.28,21.413 9.72,22.075 11.88,22.075 "
       transform="matrix(0.61990738,0,0,0.77984847,33.262117,971.65936)"
       id="polygon66995-2"
       style="fill:#8c8c8c" />
    <polygon
       points="20.52,21.413 20.52,20.636 15.48,20.636 15.48,21.413 16.919,22.075 19.08,22.075 "
       transform="matrix(0.61990738,0,0,0.77984847,33.262117,971.65936)"
       id="polygon66997-7"
       style="fill:#8c8c8c" />
    <polygon
       points="28.259,19.829 28.8,21.601 28.8,2.16 28.259,3.931 27.253,3.931 27.253,19.821 "
       transform="matrix(0.61990738,0,0,0.77984847,33.262117,971.65936)"
       id="polygon66999-7"
       style="fill:#141414" />
    <polygon
       points="3.6,15.479 0.54,15.479 0.54,19.829 0,21.601 0,2.16 0.54,3.931 0.54,8.28 3.6,8.28 "
       transform="matrix(0.61990738,0,0,0.77984847,33.262117,971.65936)"
       id="polygon67001-9"
       style="fill:#1f1f1f" />
    <polygon
       points="3.6,8.28 0.54,8.251 0.403,9.777 0.403,11.873 3.6,11.873 "
       transform="matrix(0.61990738,0,0,0.77984847,33.262117,971.65936)"
       id="polygon67003-5"
       style="fill:#1c1c1c" />
    <polygon
       points="0.54,15.517 3.6,15.517 3.6,11.873 0.403,11.873 0.403,13.981 "
       transform="matrix(0.61990738,0,0,0.77984847,33.262117,971.65936)"
       id="polygon67005-5"
       style="fill:#383838" />
    <path
       d="m 33.596864,974.72491 v 3.36349 c 1.061903,0.25271 1.870262,1.42009 1.870262,2.83007 0,1.40995 -0.803403,2.58281 -1.870262,2.83561 v 3.36344 H 50.780079 V 974.72491 H 33.596864 z"
       id="path67007-4"
       style="fill:#303030" />
    <path
       d="m 33.51194,979.28389 v 3.27456 c 0.65586,-0.0959 1.16914,-0.78682 1.16914,-1.6407 0,-0.85395 -0.508324,-1.5379 -1.16914,-1.63386 z"
       id="path67009-0"
       style="fill:#262626" />
    <circle
       cx="4.6799998"
       cy="16.898001"
       r="1.483"
       transform="matrix(0.61990738,0,0,0.77984847,33.262117,971.65936)"
       id="circle67011-3"
       style="fill:#212121" />
  </g>
</svg>
