\relax 
\providecommand*{\memsetcounter}[2]{}
\catcode `"\active 
\catcode `<\active 
\catcode `>\active 
\@nameuse{es@quoting}
\select@language{spanish}
\@writefile{toc}{\select@language{spanish}}
\@writefile{lof}{\select@language{spanish}}
\@writefile{lot}{\select@language{spanish}}
\@writefile{lof}{\addvspace {10pt}}
\@writefile{lot}{\addvspace {10pt}}
\@writefile{toc}{\contentsline {chapter}{\chapternumberline {1}IFLAB-Entorno de Programación}{1}}
\@writefile{lof}{\contentsline {figure}{\numberline {1.1}{\ignorespaces Espacio de Trabajo de IFLAB}}{2}}
\newlabel{fig:1}{{\M@TitleReference {1.1}{Espacio de Trabajo de IFLAB}}{2}}
\@writefile{lof}{\addvspace {10pt}}
\@writefile{lot}{\addvspace {10pt}}
\@writefile{toc}{\contentsline {chapter}{\chapternumberline {2}The journey continues}{3}}
\@writefile{lof}{\addvspace {10pt}}
\@writefile{lot}{\addvspace {10pt}}
\@writefile{toc}{\contentsline {chapter}{\chapternumberline {3}The journey ends}{5}}
\memsetcounter{lastsheet}{5}
\memsetcounter{lastpage}{5}
